SMOTE: Counter({0: 112, 1: 74}) ENN:Counter({0: 92, 1: 55})
SMOTE: Counter({0: 112, 1: 111}) ENN:Counter({1: 98, 0: 95})
SMOTE: Counter({0: 112, 1: 111}) ENN:Counter({1: 104, 0: 90})
SMOTE: Counter({0: 112, 1: 111}) ENN:Counter({1: 107, 0: 100})
SMOTE: Counter({0: 112, 1: 111}) ENN:Counter({1: 105, 0: 96})
SMOTE: Counter({0: 112, 1: 111}) ENN:Counter({1: 104, 0: 95})
SMOTE: Counter({0: 112, 1: 111}) ENN:Counter({1: 102, 0: 95})
SMOTE: Counter({0: 112, 1: 111}) ENN:Counter({1: 105, 0: 99})
SMOTE: Counter({0: 112, 1: 111}) ENN:Counter({1: 104, 0: 89})
SMOTE: Counter({0: 112, 1: 111}) ENN:Counter({1: 102, 0: 96})
