Train: (140, 190), Test: (60, 190)
Train: (140, 190), Test: (60, 190)
Train: (140, 190), Test: (60, 190)
Train: (140, 190), Test: (60, 190)
Train: (140, 190), Test: (60, 190)
Train: (140, 190), Test: (60, 190)
Train: (140, 190), Test: (60, 190)
Train: (140, 190), Test: (60, 190)
Train: (140, 190), Test: (60, 190)
Train: (140, 190), Test: (60, 190)
