0.800000	0.000000	0.000000	1.000000	0.000000	0.000000	0	4	0	16
0.800000	0.000000	0.000000	1.000000	0.000000	0.000000	0	4	0	16
0.900000	1.000000	0.500000	1.000000	0.666667	0.615385	2	2	0	16
1.000000	1.000000	1.000000	1.000000	1.000000	1.000000	4	0	0	16
1.000000	1.000000	1.000000	1.000000	1.000000	1.000000	4	0	0	16
0.850000	0.666667	0.500000	0.937500	0.571429	0.482759	2	2	1	15
0.800000	0.500000	0.250000	0.937500	0.333333	0.230769	1	3	1	15
0.950000	0.800000	1.000000	0.937500	0.888889	0.857143	4	0	1	15
0.850000	1.000000	0.250000	1.000000	0.400000	0.347826	1	3	0	16
0.950000	1.000000	0.750000	1.000000	0.857143	0.827586	3	1	0	16
