0.916667	0.769231	0.833333	0.937500	0.800000	0.747475	10	2	3	45
0.966667	0.916667	0.916667	0.979167	0.916667	0.895833	11	1	1	47
0.916667	0.769231	0.833333	0.937500	0.800000	0.747475	10	2	3	45
0.933333	1.000000	0.666667	1.000000	0.800000	0.761905	8	4	0	48
0.950000	0.909091	0.833333	0.979167	0.869565	0.838710	10	2	1	47
0.950000	0.909091	0.833333	0.979167	0.869565	0.838710	10	2	1	47
0.883333	1.000000	0.416667	1.000000	0.588235	0.533333	5	7	0	48
0.900000	0.687500	0.916667	0.895833	0.785714	0.722222	11	1	5	43
0.950000	0.909091	0.833333	0.979167	0.869565	0.838710	10	2	1	47
0.916667	0.818182	0.750000	0.958333	0.782609	0.731183	9	3	2	46
