1 1
5 2
5 3
4 4
4 5
6 6
2 7
4 8
4 9
3 10
4 11
2 12
3 13
2 14
3 15
0 16
3 17
4 18
1 19
3 20
2 21
2 22
1 23
2 24
8 25
3 26
4 27
1 28
4 29
4 30
2 31
3 32
2 33
3 34
2 35
3 36
2 37
5 38
6 39
3 40
2 41
3 42
3 43
5 44
4 45
1 46
1 47
2 48
2 49
2 50
0 51
3 52
2 53
6 54
8 55
3 56
4 57
4 58
2 59
2 60
5 61
1 62
6 63
4 64
4 65
3 66
5 67
0 68
8 69
4 70
6 71
3 72
5 73
4 74
8 75
4 76
1 77
4 78
0 79
4 80
0 81
5 82
6 83
4 84
5 85
4 86
5 87
1 88
1 89
0 90
5 91
1 92
2 93
1 94
4 95
1 96
6 97
4 98
1 99
2 100
3 101
6 102
1 103
3 104
5 105
3 106
4 107
5 108
5 109
3 110
3 111
8 112
4 113
1 114
5 115
2 116
7 117
2 118
4 119
2 120
1 121
0 122
7 123
3 124
3 125
2 126
2 127
4 128
6 129
0 130
4 131
4 132
1 133
5 134
6 135
2 136
6 137
5 138
3 139
3 140
5 141
4 142
2 143
4 144
0 145
3 146
5 147
6 148
4 149
3 150
1 151
7 152
2 153
0 154
2 155
0 156
4 157
1 158
4 159
3 160
5 161
2 162
8 163
3 164
6 165
3 166
4 167
0 168
5 169
4 170
3 171
5 172
6 173
1 174
4 175
3 176
5 177
4 178
4 179
2 180
1 181
4 182
4 183
6 184
5 185
3 186
3 187
6 188
5 189
3 190
2 191
5 192
1 193
5 194
1 195
2 196
4 197
2 198
2 199
4 200
2 201
1 202
4 203
3 204
8 205
9 206
5 207
0 208
1 209
2 210
7 211
0 212
5 213
2 214
7 215
5 216
4 217
2 218
7 219
5 220
6 221
4 222
8 223
2 224
4 225
5 226
0 227
4 228
2 229
0 230
3 231
8 232
3 233
0 234
3 235
2 236
1 237
5 238
2 239
0 240
1 241
5 242
1 243
9 244
5 245
2 246
3 247
1 248
3 249
3 250
4 251
5 252
2 253
4 254
1 255
6 256
3 257
0 258
5 259
5 260
5 261
6 262
0 263
3 264
7 265
2 266
4 267
3 268
1 269
0 270
6 271
4 272
3 273
5 274
0 275
4 276
3 277
2 278
4 279
4 280
1 281
3 282
3 283
2 284
5 285
3 286
3 287
8 288
1 289
0 290
1 291
3 292
1 293
4 294
2 295
6 296
5 297
3 298
0 299
1 300
4 301
7 302
0 303
3 304
6 305
1 306
0 307
5 308
5 309
3 310
4 311
3 312
9 313
1 314
2 315
5 316
5 317
2 318
2 319
4 320
6 321
5 322
2 323
3 324
1 325
8 326
1 327
0 328
3 329
5 330
2 331
2 332
2 333
2 334
4 335
2 336
4 337
1 338
5 339
5 340
4 341
6 342
0 343
6 344
7 345
5 346
0 347
7 348
9 349
2 350
4 351
3 352
4 353
3 354
3 355
3 356
7 357
6 358
2 359
4 360
2 361
6 362
1 363
7 364
3 365
5 366
3 367
3 368
3 369
1 370
5 371
4 372
5 373
4 374
7 375
6 376
2 377
5 378
3 379
3 380
6 381
3 382
4 383
1 384
4 385
1 386
1 387
7 388
1 389
5 390
6 391
0 392
2 393
8 394
5 395
7 396
3 397
          10 398
5 399
1 400
5 401
5 402
3 403
1 404
6 405
5 406
7 407
5 408
2 409
5 410
3 411
3 412
4 413
1 414
6 415
3 416
1 417
2 418
2 419
4 420
7 421
3 422
3 423
5 424
4 425
3 426
1 427
6 428
2 429
1 430
4 431
5 432
5 433
3 434
2 435
5 436
5 437
4 438
4 439
3 440
4 441
2 442
5 443
2 444
6 445
3 446
6 447
1 448
2 449
5 450
2 451
1 452
7 453
2 454
5 455
3 456
0 457
1 458
4 459
2 460
1 461
0 462
3 463
3 464
0 465
4 466
0 467
1 468
8 469
0 470
6 471
3 472
5 473
5 474
1 475
2 476
3 477
4 478
5 479
1 480
4 481
3 482
4 483
5 484
6 485
7 486
4 487
4 488
2 489
4 490
5 491
3 492
5 493
1 494
2 495
3 496
2 497
6 498
6 499
2 500
6 501
4 502
1 503
2 504
1 505
2 506
4 507
2 508
0 509
5 510
4 511
7 512
3 513
2 514
6 515
5 516
4 517
1 518
4 519
8 520
5 521
4 522
5 523
4 524
5 525
4 526
2 527
3 528
3 529
1 530
0 531
7 532
7 533
1 534
2 535
4 536
6 537
5 538
3 539
1 540
5 541
2 542
3 543
3 544
2 545
1 546
2 547
3 548
5 549
0 550
1 551
6 552
5 553
6 554
4 555
4 556
4 557
6 558
7 559
2 560
4 561
1 562
2 563
3 564
4 565
6 566
3 567
4 568
1 569
5 570
4 571
3 572
2 573
2 574
4 575
5 576
2 577
4 578
1 579
1 580
2 581
5 582
8 583
4 584
2 585
1 586
2 587
6 588
3 589
5 590
0 591
1 592
3 593
4 594
2 595
0 596
1 597
5 598
2 599
6 600
3 601
1 602
6 603
4 604
1 605
4 606
2 607
4 608
0 609
5 610
6 611
5 612
3 613
5 614
0 615
3 616
2 617
6 618
4 619
4 620
2 621
6 622
5 623
1 624
4 625
1 626
2 627
5 628
3 629
3 630
5 631
7 632
1 633
5 634
5 635
1 636
7 637
1 638
1 639
0 640
6 641
5 642
4 643
6 644
4 645
6 646
5 647
5 648
2 649
2 650
5 651
5 652
3 653
6 654
6 655
2 656
2 657
7 658
8 659
1 660
2 661
6 662
5 663
4 664
8 665
1 666
6 667
5 668
2 669
3 670
2 671
3 672
2 673
1 674
6 675
5 676
6 677
4 678
6 679
5 680
1 681
1 682
6 683
4 684
7 685
2 686
0 687
2 688
6 689
6 690
1 691
5 692
5 693
3 694
5 695
3 696
9 697
3 698
7 699
4 700
4 701
1 702
2 703
3 704
8 705
9 706
2 707
7 708
3 709
0 710
7 711
4 712
6 713
2 714
2 715
3 716
2 717
2 718
2 719
3 720
3 721
6 722
4 723
3 724
8 725
0 726
2 727
3 728
5 729
6 730
1 731
2 732
6 733
1 734
5 735
3 736
3 737
5 738
9 739
3 740
2 741
4 742
4 743
1 744
3 745
4 746
5 747
3 748
6 749
4 750
3 751
7 752
3 753
3 754
2 755
1 756
7 757
3 758
4 759
5 760
2 761
7 762
3 763
4 764
2 765
2 766
3 767
1 768
5 769
8 770
0 771
1 772
3 773
3 774
3 775
2 776
6 777
4 778
5 779
3 780
4 781
3 782
1 783
3 784
8 785
1 786
4 787
3 788
6 789
1 790
1 791
3 792
5 793
7 794
7 795
5 796
4 797
4 798
1 799
5 800
0 801
4 802
4 803
2 804
4 805
6 806
1 807
1 808
1 809
5 810
4 811
0 812
5 813
3 814
5 815
2 816
8 817
4 818
4 819
5 820
1 821
6 822
2 823
1 824
2 825
5 826
7 827
4 828
6 829
1 830
0 831
3 832
2 833
1 834
2 835
2 836
2 837
3 838
9 839
5 840
3 841
8 842
7 843
3 844
3 845
8 846
3 847
4 848
5 849
1 850
1 851
2 852
1 853
3 854
4 855
1 856
4 857
3 858
3 859
0 860
4 861
5 862
8 863
3 864
1 865
4 866
7 867
1 868
7 869
1 870
0 871
1 872
0 873
3 874
2 875
4 876
9 877
3 878
1 879
4 880
0 881
3 882
5 883
4 884
3 885
3 886
8 887
1 888
0 889
6 890
6 891
2 892
5 893
5 894
4 895
3 896
4 897
4 898
4 899
5 900
2 901
2 902
2 903
2 904
4 905
1 906
3 907
3 908
0 909
6 910
5 911
5 912
4 913
1 914
0 915
3 916
3 917
3 918
2 919
6 920
7 921
2 922
5 923
4 924
3 925
7 926
2 927
6 928
3 929
5 930
4 931
5 932
2 933
2 934
7 935
2 936
5 937
4 938
1 939
2 940
2 941
4 942
3 943
5 944
5 945
6 946
0 947
1 948
4 949
4 950
7 951
5 952
4 953
6 954
7 955
7 956
1 957
0 958
2 959
1 960
2 961
2 962
3 963
4 964
3 965
1 966
4 967
2 968
1 969
8 970
2 971
1 972
2 973
8 974
4 975
5 976
6 977
0 978
2 979
8 980
5 981
5 982
8 983
4 984
5 985
1 986
2 987
3 988
3 989
5 990
9 991
0 992
3 993
2 994
9 995
0 996
5 997
2 998
4 999
4 1000
5 1001
5 1002
1 1003
3 1004
4 1005
4 1006
3 1007
2 1008
1 1009
0 1010
3 1011
2 1012
2 1013
6 1014
4 1015
3 1016
1 1017
2 1018
2 1019
7 1020
6 1021
3 1022
2 1023
6 1024
4 1025
2 1026
2 1027
8 1028
2 1029
5 1030
0 1031
3 1032
3 1033
6 1034
1 1035
3 1036
4 1037
5 1038
7 1039
1 1040
6 1041
3 1042
0 1043
4 1044
1 1045
7 1046
5 1047
6 1048
5 1049
0 1050
2 1051
3 1052
3 1053
1 1054
5 1055
3 1056
4 1057
3 1058
2 1059
2 1060
2 1061
1 1062
4 1063
9 1064
6 1065
1 1066
3 1067
3 1068
1 1069
6 1070
8 1071
3 1072
7 1073
4 1074
8 1075
3 1076
3 1077
2 1078
2 1079
7 1080
3 1081
6 1082
6 1083
4 1084
5 1085
6 1086
4 1087
1 1088
5 1089
3 1090
8 1091
1 1092
3 1093
3 1094
4 1095
6 1096
1 1097
6 1098
5 1099
3 1100
1 1101
6 1102
0 1103
2 1104
5 1105
3 1106
1 1107
2 1108
5 1109
4 1110
1 1111
4 1112
4 1113
4 1114
6 1115
4 1116
2 1117
1 1118
2 1119
5 1120
7 1121
3 1122
4 1123
8 1124
6 1125
1 1126
6 1127
3 1128
2 1129
4 1130
3 1131
4 1132
0 1133
7 1134
5 1135
3 1136
7 1137
5 1138
4 1139
7 1140
4 1141
5 1142
6 1143
5 1144
2 1145
0 1146
6 1147
8 1148
6 1149
7 1150
4 1151
2 1152
3 1153
0 1154
2 1155
3 1156
5 1157
3 1158
0 1159
8 1160
1 1161
3 1162
5 1163
6 1164
4 1165
3 1166
3 1167
2 1168
2 1169
5 1170
8 1171
2 1172
5 1173
3 1174
4 1175
3 1176
4 1177
5 1178
3 1179
1 1180
4 1181
3 1182
5 1183
4 1184
7 1185
5 1186
1 1187
4 1188
7 1189
0 1190
6 1191
2 1192
2 1193
3 1194
8 1195
4 1196
1 1197
3 1198
5 1199
3 1200
3 1201
5 1202
7 1203
2 1204
0 1205
5 1206
4 1207
2 1208
4 1209
0 1210
6 1211
3 1212
3 1213
3 1214
0 1215
3 1216
3 1217
7 1218
2 1219
3 1220
2 1221
3 1222
2 1223
3 1224
1 1225
1 1226
4 1227
1 1228
4 1229
7 1230
3 1231
4 1232
5 1233
0 1234
1 1235
3 1236
5 1237
4 1238
5 1239
3 1240
0 1241
1 1242
0 1243
3 1244
1 1245
4 1246
4 1247
4 1248
5 1249
6 1250
1 1251
6 1252
2 1253
6 1254
3 1255
3 1256
2 1257
3 1258
7 1259
2 1260
2 1261
2 1262
8 1263
5 1264
5 1265
4 1266
1 1267
5 1268
2 1269
4 1270
4 1271
2 1272
1 1273
4 1274
3 1275
2 1276
0 1277
5 1278
7 1279
6 1280
3 1281
6 1282
2 1283
1 1284
3 1285
4 1286
6 1287
4 1288
3 1289
3 1290
6 1291
          10 1292
5 1293
4 1294
3 1295
1 1296
2 1297
7 1298
6 1299
4 1300
6 1301
3 1302
5 1303
4 1304
4 1305
3 1306
3 1307
5 1308
3 1309
1 1310
5 1311
6 1312
4 1313
2 1314
2 1315
0 1316
3 1317
2 1318
4 1319
3 1320
7 1321
3 1322
5 1323
1 1324
2 1325
1 1326
0 1327
7 1328
2 1329
1 1330
7 1331
4 1332
1 1333
3 1334
1 1335
2 1336
1 1337
7 1338
6 1339
3 1340
1 1341
1 1342
2 1343
4 1344
2 1345
9 1346
3 1347
7 1348
4 1349
6 1350
4 1351
2 1352
3 1353
4 1354
7 1355
2 1356
8 1357
6 1358
4 1359
4 1360
7 1361
3 1362
3 1363
3 1364
2 1365
5 1366
5 1367
5 1368
5 1369
7 1370
3 1371
7 1372
          10 1373
2 1374
0 1375
4 1376
2 1377
5 1378
6 1379
7 1380
5 1381
0 1382
4 1383
2 1384
3 1385
4 1386
3 1387
5 1388
3 1389
5 1390
5 1391
2 1392
4 1393
6 1394
1 1395
5 1396
2 1397
3 1398
4 1399
2 1400
6 1401
1 1402
1 1403
2 1404
2 1405
5 1406
5 1407
1 1408
2 1409
4 1410
6 1411
3 1412
4 1413
3 1414
6 1415
3 1416
1 1417
4 1418
9 1419
8 1420
9 1421
6 1422
3 1423
2 1424
4 1425
1 1426
4 1427
4 1428
5 1429
1 1430
7 1431
2 1432
2 1433
6 1434
2 1435
5 1436
4 1437
1 1438
4 1439
9 1440
4 1441
9 1442
4 1443
2 1444
3 1445
3 1446
4 1447
1 1448
4 1449
5 1450
9 1451
2 1452
4 1453
0 1454
3 1455
5 1456
5 1457
1 1458
1 1459
3 1460
3 1461
8 1462
6 1463
3 1464
3 1465
3 1466
3 1467
5 1468
1 1469
3 1470
4 1471
0 1472
4 1473
4 1474
1 1475
6 1476
3 1477
4 1478
5 1479
5 1480
3 1481
4 1482
6 1483
2 1484
7 1485
6 1486
2 1487
6 1488
2 1489
7 1490
4 1491
4 1492
5 1493
3 1494
1 1495
4 1496
2 1497
3 1498
4 1499
3 1500
2 1501
3 1502
4 1503
2 1504
4 1505
4 1506
1 1507
6 1508
7 1509
6 1510
0 1511
0 1512
2 1513
2 1514
2 1515
2 1516
2 1517
3 1518
3 1519
9 1520
3 1521
2 1522
7 1523
0 1524
4 1525
0 1526
5 1527
0 1528
1 1529
8 1530
1 1531
3 1532
6 1533
5 1534
3 1535
7 1536
2 1537
4 1538
1 1539
5 1540
4 1541
3 1542
3 1543
4 1544
2 1545
1 1546
3 1547
1 1548
3 1549
5 1550
5 1551
3 1552
4 1553
3 1554
2 1555
6 1556
3 1557
5 1558
5 1559
2 1560
5 1561
1 1562
5 1563
1 1564
5 1565
6 1566
3 1567
3 1568
5 1569
9 1570
5 1571
4 1572
4 1573
6 1574
3 1575
2 1576
6 1577
2 1578
6 1579
3 1580
4 1581
5 1582
2 1583
3 1584
5 1585
6 1586
5 1587
3 1588
4 1589
6 1590
0 1591
0 1592
3 1593
7 1594
5 1595
3 1596
5 1597
2 1598
9 1599
2 1600
4 1601
3 1602
6 1603
4 1604
6 1605
3 1606
4 1607
3 1608
2 1609
9 1610
5 1611
5 1612
4 1613
4 1614
6 1615
1 1616
6 1617
3 1618
2 1619
6 1620
2 1621
4 1622
8 1623
3 1624
1 1625
1 1626
5 1627
7 1628
3 1629
2 1630
4 1631
5 1632
4 1633
1 1634
8 1635
3 1636
5 1637
4 1638
2 1639
4 1640
5 1641
3 1642
6 1643
2 1644
7 1645
3 1646
2 1647
4 1648
3 1649
4 1650
2 1651
4 1652
5 1653
3 1654
2 1655
6 1656
4 1657
1 1658
2 1659
4 1660
2 1661
7 1662
1 1663
6 1664
5 1665
2 1666
3 1667
5 1668
3 1669
2 1670
3 1671
1 1672
2 1673
6 1674
0 1675
7 1676
2 1677
1 1678
4 1679
4 1680
5 1681
4 1682
5 1683
5 1684
1 1685
3 1686
2 1687
4 1688
4 1689
2 1690
4 1691
1 1692
6 1693
6 1694
5 1695
5 1696
6 1697
4 1698
3 1699
6 1700
2 1701
5 1702
7 1703
6 1704
2 1705
1 1706
3 1707
5 1708
2 1709
5 1710
4 1711
6 1712
2 1713
5 1714
7 1715
2 1716
6 1717
6 1718
5 1719
3 1720
4 1721
5 1722
3 1723
1 1724
4 1725
3 1726
3 1727
6 1728
1 1729
4 1730
4 1731
1 1732
5 1733
1 1734
7 1735
1 1736
1 1737
5 1738
7 1739
4 1740
2 1741
1 1742
3 1743
1 1744
6 1745
3 1746
3 1747
4 1748
8 1749
3 1750
3 1751
2 1752
4 1753
4 1754
3 1755
4 1756
6 1757
4 1758
5 1759
4 1760
1 1761
4 1762
2 1763
1 1764
1 1765
3 1766
1 1767
4 1768
5 1769
0 1770
2 1771
4 1772
5 1773
4 1774
6 1775
3 1776
4 1777
1 1778
2 1779
6 1780
2 1781
7 1782
3 1783
5 1784
2 1785
2 1786
7 1787
0 1788
3 1789
2 1790
5 1791
8 1792
5 1793
5 1794
6 1795
2 1796
3 1797
5 1798
0 1799
4 1800
4 1801
4 1802
5 1803
1 1804
2 1805
1 1806
3 1807
3 1808
8 1809
7 1810
5 1811
1 1812
0 1813
3 1814
2 1815
5 1816
1 1817
2 1818
7 1819
3 1820
5 1821
1 1822
1 1823
3 1824
4 1825
3 1826
2 1827
6 1828
1 1829
8 1830
2 1831
3 1832
2 1833
5 1834
2 1835
1 1836
3 1837
2 1838
2 1839
2 1840
6 1841
0 1842
5 1843
2 1844
2 1845
1 1846
7 1847
4 1848
3 1849
2 1850
0 1851
1 1852
8 1853
2 1854
2 1855
3 1856
1 1857
1 1858
4 1859
7 1860
8 1861
4 1862
4 1863
4 1864
9 1865
8 1866
1 1867
1 1868
3 1869
4 1870
5 1871
9 1872
2 1873
4 1874
3 1875
6 1876
1 1877
0 1878
1 1879
7 1880
5 1881
5 1882
5 1883
0 1884
5 1885
4 1886
5 1887
5 1888
3 1889
8 1890
4 1891
4 1892
4 1893
6 1894
4 1895
8 1896
4 1897
4 1898
4 1899
2 1900
4 1901
8 1902
3 1903
3 1904
5 1905
0 1906
4 1907
6 1908
2 1909
6 1910
2 1911
3 1912
4 1913
6 1914
2 1915
1 1916
2 1917
4 1918
3 1919
2 1920
2 1921
4 1922
7 1923
5 1924
3 1925
5 1926
3 1927
2 1928
7 1929
3 1930
0 1931
3 1932
8 1933
4 1934
3 1935
2 1936
1 1937
4 1938
4 1939
3 1940
4 1941
7 1942
2 1943
7 1944
1 1945
5 1946
3 1947
0 1948
3 1949
3 1950
4 1951
4 1952
8 1953
2 1954
4 1955
8 1956
4 1957
4 1958
5 1959
4 1960
1 1961
3 1962
4 1963
3 1964
4 1965
4 1966
4 1967
2 1968
1 1969
6 1970
4 1971
3 1972
6 1973
3 1974
3 1975
9 1976
4 1977
3 1978
3 1979
6 1980
2 1981
7 1982
3 1983
5 1984
5 1985
0 1986
2 1987
3 1988
6 1989
6 1990
3 1991
7 1992
1 1993
7 1994
1 1995
2 1996
1 1997
8 1998
6 1999
2 2000
8 2001
4 2002
2 2003
0 2004
3 2005
5 2006
0 2007
6 2008
7 2009
6 2010
3 2011
7 2012
7 2013
6 2014
1 2015
0 2016
1 2017
3 2018
2 2019
1 2020
6 2021
3 2022
4 2023
3 2024
4 2025
3 2026
4 2027
4 2028
3 2029
7 2030
6 2031
7 2032
4 2033
2 2034
8 2035
1 2036
0 2037
8 2038
6 2039
0 2040
2 2041
5 2042
6 2043
6 2044
5 2045
4 2046
9 2047
6 2048
1 2049
2 2050
5 2051
7 2052
2 2053
3 2054
2 2055
3 2056
3 2057
3 2058
9 2059
2 2060
2 2061
2 2062
5 2063
8 2064
2 2065
4 2066
6 2067
1 2068
2 2069
2 2070
7 2071
6 2072
3 2073
8 2074
3 2075
2 2076
8 2077
5 2078
1 2079
5 2080
0 2081
2 2082
7 2083
4 2084
6 2085
5 2086
1 2087
3 2088
6 2089
1 2090
2 2091
4 2092
4 2093
6 2094
7 2095
2 2096
8 2097
4 2098
6 2099
6 2100
5 2101
3 2102
9 2103
3 2104
0 2105
2 2106
0 2107
4 2108
5 2109
6 2110
3 2111
6 2112
2 2113
0 2114
6 2115
2 2116
6 2117
2 2118
5 2119
5 2120
5 2121
3 2122
5 2123
2 2124
0 2125
5 2126
4 2127
6 2128
1 2129
4 2130
7 2131
4 2132
6 2133
7 2134
2 2135
0 2136
5 2137
3 2138
2 2139
5 2140
7 2141
6 2142
2 2143
1 2144
5 2145
9 2146
8 2147
6 2148
3 2149
4 2150
4 2151
6 2152
2 2153
1 2154
4 2155
6 2156
4 2157
4 2158
2 2159
4 2160
3 2161
3 2162
2 2163
1 2164
4 2165
6 2166
4 2167
1 2168
6 2169
3 2170
2 2171
3 2172
1 2173
6 2174
3 2175
2 2176
6 2177
4 2178
3 2179
4 2180
4 2181
5 2182
5 2183
3 2184
5 2185
3 2186
4 2187
0 2188
1 2189
6 2190
3 2191
7 2192
3 2193
6 2194
4 2195
0 2196
4 2197
7 2198
8 2199
2 2200
1 2201
1 2202
1 2203
7 2204
1 2205
2 2206
3 2207
3 2208
5 2209
4 2210
1 2211
6 2212
6 2213
0 2214
4 2215
8 2216
1 2217
2 2218
2 2219
5 2220
2 2221
2 2222
2 2223
5 2224
6 2225
6 2226
3 2227
1 2228
1 2229
3 2230
4 2231
2 2232
0 2233
5 2234
4 2235
5 2236
1 2237
2 2238
4 2239
4 2240
5 2241
5 2242
7 2243
7 2244
6 2245
3 2246
4 2247
4 2248
1 2249
0 2250
3 2251
0 2252
8 2253
4 2254
2 2255
3 2256
4 2257
4 2258
6 2259
6 2260
8 2261
4 2262
0 2263
6 2264
1 2265
1 2266
3 2267
0 2268
7 2269
1 2270
6 2271
3 2272
5 2273
4 2274
3 2275
7 2276
3 2277
3 2278
4 2279
5 2280
3 2281
0 2282
2 2283
2 2284
2 2285
4 2286
7 2287
3 2288
0 2289
7 2290
4 2291
1 2292
1 2293
2 2294
4 2295
2 2296
2 2297
1 2298
2 2299
4 2300
0 2301
4 2302
2 2303
4 2304
6 2305
2 2306
5 2307
5 2308
3 2309
5 2310
4 2311
5 2312
4 2313
3 2314
2 2315
1 2316
5 2317
5 2318
5 2319
7 2320
2 2321
3 2322
2 2323
6 2324
6 2325
6 2326
2 2327
8 2328
6 2329
3 2330
6 2331
6 2332
5 2333
2 2334
2 2335
1 2336
3 2337
6 2338
3 2339
2 2340
4 2341
1 2342
0 2343
2 2344
2 2345
1 2346
2 2347
1 2348
1 2349
3 2350
3 2351
7 2352
3 2353
4 2354
8 2355
2 2356
2 2357
0 2358
4 2359
1 2360
4 2361
8 2362
5 2363
3 2364
4 2365
4 2366
3 2367
2 2368
5 2369
7 2370
4 2371
2 2372
6 2373
9 2374
3 2375
7 2376
7 2377
          10 2378
4 2379
3 2380
3 2381
5 2382
4 2383
7 2384
0 2385
7 2386
8 2387
5 2388
2 2389
4 2390
8 2391
4 2392
1 2393
2 2394
5 2395
5 2396
5 2397
3 2398
2 2399
1 2400
4 2401
6 2402
5 2403
4 2404
8 2405
2 2406
3 2407
4 2408
8 2409
6 2410
6 2411
0 2412
2 2413
4 2414
7 2415
4 2416
0 2417
5 2418
3 2419
6 2420
4 2421
3 2422
4 2423
1 2424
0 2425
3 2426
1 2427
0 2428
4 2429
2 2430
4 2431
0 2432
0 2433
4 2434
0 2435
5 2436
2 2437
2 2438
4 2439
4 2440
2 2441
2 2442
2 2443
4 2444
4 2445
2 2446
1 2447
2 2448
4 2449
4 2450
8 2451
3 2452
4 2453
7 2454
5 2455
4 2456
3 2457
0 2458
5 2459
7 2460
6 2461
2 2462
3 2463
7 2464
3 2465
5 2466
2 2467
0 2468
7 2469
6 2470
5 2471
2 2472
4 2473
3 2474
4 2475
5 2476
4 2477
0 2478
4 2479
9 2480
4 2481
3 2482
4 2483
2 2484
3 2485
4 2486
8 2487
4 2488
3 2489
6 2490
5 2491
3 2492
4 2493
4 2494
3 2495
3 2496
1 2497
2 2498
8 2499
4 2500
7 2501
6 2502
6 2503
1 2504
2 2505
3 2506
3 2507
5 2508
4 2509
3 2510
1 2511
1 2512
4 2513
5 2514
4 2515
4 2516
2 2517
4 2518
4 2519
4 2520
4 2521
1 2522
3 2523
1 2524
5 2525
7 2526
6 2527
3 2528
8 2529
4 2530
6 2531
1 2532
4 2533
7 2534
2 2535
5 2536
1 2537
1 2538
3 2539
5 2540
1 2541
2 2542
3 2543
8 2544
2 2545
3 2546
1 2547
5 2548
7 2549
3 2550
4 2551
3 2552
4 2553
4 2554
4 2555
2 2556
0 2557
4 2558
7 2559
0 2560
2 2561
2 2562
8 2563
5 2564
6 2565
7 2566
5 2567
3 2568
6 2569
4 2570
5 2571
7 2572
3 2573
3 2574
4 2575
4 2576
3 2577
5 2578
3 2579
6 2580
4 2581
5 2582
0 2583
1 2584
0 2585
4 2586
5 2587
5 2588
4 2589
2 2590
1 2591
4 2592
1 2593
6 2594
7 2595
5 2596
4 2597
7 2598
3 2599
4 2600
2 2601
6 2602
2 2603
4 2604
4 2605
2 2606
4 2607
4 2608
6 2609
2 2610
0 2611
4 2612
2 2613
3 2614
4 2615
3 2616
4 2617
2 2618
6 2619
2 2620
1 2621
4 2622
5 2623
1 2624
1 2625
5 2626
5 2627
2 2628
6 2629
5 2630
3 2631
5 2632
5 2633
0 2634
5 2635
1 2636
0 2637
3 2638
2 2639
1 2640
2 2641
4 2642
7 2643
2 2644
4 2645
2 2646
3 2647
4 2648
1 2649
2 2650
0 2651
2 2652
1 2653
6 2654
1 2655
1 2656
3 2657
5 2658
0 2659
3 2660
3 2661
2 2662
2 2663
4 2664
3 2665
2 2666
          10 2667
2 2668
2 2669
3 2670
6 2671
2 2672
2 2673
5 2674
2 2675
0 2676
7 2677
5 2678
6 2679
1 2680
6 2681
8 2682
6 2683
4 2684
4 2685
1 2686
2 2687
5 2688
3 2689
3 2690
6 2691
3 2692
4 2693
7 2694
2 2695
3 2696
3 2697
1 2698
4 2699
2 2700
2 2701
6 2702
3 2703
4 2704
7 2705
5 2706
3 2707
5 2708
1 2709
3 2710
1 2711
4 2712
1 2713
2 2714
6 2715
2 2716
4 2717
1 2718
2 2719
3 2720
6 2721
4 2722
6 2723
6 2724
5 2725
2 2726
6 2727
9 2728
1 2729
3 2730
1 2731
1 2732
0 2733
3 2734
2 2735
6 2736
3 2737
3 2738
0 2739
6 2740
1 2741
2 2742
3 2743
3 2744
5 2745
7 2746
4 2747
2 2748
4 2749
3 2750
4 2751
1 2752
1 2753
5 2754
0 2755
7 2756
3 2757
5 2758
1 2759
5 2760
2 2761
5 2762
7 2763
4 2764
5 2765
0 2766
6 2767
6 2768
4 2769
3 2770
2 2771
3 2772
2 2773
5 2774
4 2775
4 2776
5 2777
4 2778
1 2779
5 2780
5 2781
5 2782
6 2783
1 2784
1 2785
9 2786
2 2787
1 2788
2 2789
4 2790
5 2791
5 2792
4 2793
4 2794
6 2795
5 2796
4 2797
5 2798
3 2799
3 2800
3 2801
3 2802
4 2803
4 2804
3 2805
5 2806
3 2807
5 2808
5 2809
5 2810
8 2811
7 2812
5 2813
8 2814
5 2815
7 2816
1 2817
1 2818
3 2819
6 2820
8 2821
9 2822
4 2823
5 2824
8 2825
2 2826
2 2827
6 2828
5 2829
7 2830
3 2831
7 2832
0 2833
6 2834
1 2835
2 2836
9 2837
8 2838
1 2839
1 2840
7 2841
3 2842
4 2843
3 2844
1 2845
0 2846
3 2847
1 2848
5 2849
1 2850
1 2851
6 2852
4 2853
4 2854
4 2855
3 2856
0 2857
7 2858
4 2859
7 2860
7 2861
1 2862
1 2863
4 2864
3 2865
2 2866
2 2867
4 2868
2 2869
1 2870
0 2871
2 2872
1 2873
4 2874
3 2875
4 2876
1 2877
4 2878
3 2879
3 2880
5 2881
5 2882
6 2883
6 2884
2 2885
3 2886
5 2887
2 2888
6 2889
6 2890
1 2891
2 2892
4 2893
2 2894
3 2895
2 2896
1 2897
9 2898
2 2899
2 2900
4 2901
1 2902
8 2903
8 2904
1 2905
2 2906
2 2907
2 2908
3 2909
3 2910
0 2911
3 2912
5 2913
2 2914
2 2915
6 2916
2 2917
5 2918
3 2919
6 2920
5 2921
1 2922
2 2923
3 2924
4 2925
4 2926
5 2927
6 2928
4 2929
1 2930
5 2931
2 2932
7 2933
6 2934
1 2935
1 2936
4 2937
5 2938
4 2939
1 2940
0 2941
6 2942
4 2943
0 2944
3 2945
2 2946
1 2947
6 2948
4 2949
8 2950
3 2951
1 2952
6 2953
3 2954
4 2955
0 2956
5 2957
4 2958
2 2959
2 2960
4 2961
4 2962
3 2963
5 2964
9 2965
5 2966
2 2967
5 2968
3 2969
0 2970
4 2971
7 2972
1 2973
3 2974
5 2975
5 2976
4 2977
4 2978
6 2979
4 2980
6 2981
7 2982
1 2983
3 2984
3 2985
2 2986
8 2987
9 2988
1 2989
6 2990
7 2991
0 2992
2 2993
3 2994
1 2995
5 2996
3 2997
7 2998
3 2999
0 3000
8 3001
5 3002
6 3003
3 3004
4 3005
3 3006
1 3007
4 3008
2 3009
3 3010
3 3011
4 3012
2 3013
1 3014
1 3015
3 3016
7 3017
3 3018
1 3019
6 3020
2 3021
6 3022
5 3023
6 3024
6 3025
6 3026
2 3027
3 3028
2 3029
8 3030
2 3031
4 3032
5 3033
2 3034
4 3035
3 3036
1 3037
3 3038
3 3039
3 3040
7 3041
6 3042
3 3043
9 3044
4 3045
6 3046
4 3047
2 3048
3 3049
3 3050
0 3051
5 3052
3 3053
2 3054
7 3055
5 3056
8 3057
5 3058
3 3059
3 3060
2 3061
5 3062
1 3063
4 3064
4 3065
3 3066
4 3067
8 3068
6 3069
5 3070
1 3071
1 3072
5 3073
2 3074
1 3075
3 3076
2 3077
4 3078
7 3079
3 3080
3 3081
3 3082
4 3083
5 3084
3 3085
5 3086
4 3087
0 3088
5 3089
1 3090
7 3091
4 3092
5 3093
4 3094
4 3095
1 3096
6 3097
5 3098
0 3099
3 3100
2 3101
5 3102
4 3103
4 3104
2 3105
0 3106
2 3107
3 3108
7 3109
5 3110
3 3111
5 3112
3 3113
7 3114
4 3115
5 3116
7 3117
4 3118
1 3119
5 3120
5 3121
3 3122
3 3123
6 3124
6 3125
4 3126
6 3127
3 3128
4 3129
3 3130
5 3131
6 3132
4 3133
5 3134
2 3135
9 3136
4 3137
5 3138
3 3139
1 3140
5 3141
4 3142
0 3143
6 3144
3 3145
2 3146
4 3147
3 3148
1 3149
0 3150
6 3151
2 3152
4 3153
2 3154
0 3155
1 3156
4 3157
5 3158
3 3159
7 3160
4 3161
3 3162
1 3163
6 3164
1 3165
0 3166
4 3167
6 3168
1 3169
4 3170
2 3171
6 3172
5 3173
2 3174
0 3175
3 3176
2 3177
3 3178
1 3179
4 3180
6 3181
2 3182
3 3183
5 3184
3 3185
0 3186
6 3187
0 3188
3 3189
3 3190
4 3191
5 3192
3 3193
3 3194
2 3195
4 3196
0 3197
1 3198
1 3199
2 3200
3 3201
3 3202
4 3203
5 3204
3 3205
5 3206
5 3207
5 3208
5 3209
7 3210
5 3211
3 3212
1 3213
5 3214
6 3215
2 3216
4 3217
1 3218
1 3219
1 3220
6 3221
3 3222
0 3223
5 3224
5 3225
0 3226
3 3227
2 3228
5 3229
3 3230
4 3231
2 3232
6 3233
5 3234
2 3235
6 3236
6 3237
4 3238
4 3239
3 3240
8 3241
2 3242
2 3243
0 3244
5 3245
3 3246
7 3247
2 3248
6 3249
2 3250
5 3251
6 3252
4 3253
5 3254
1 3255
4 3256
5 3257
8 3258
5 3259
3 3260
3 3261
6 3262
2 3263
6 3264
1 3265
5 3266
5 3267
2 3268
3 3269
7 3270
5 3271
3 3272
1 3273
2 3274
1 3275
4 3276
4 3277
6 3278
4 3279
3 3280
5 3281
8 3282
3 3283
5 3284
0 3285
3 3286
0 3287
6 3288
4 3289
2 3290
2 3291
2 3292
4 3293
2 3294
4 3295
1 3296
2 3297
4 3298
4 3299
8 3300
5 3301
1 3302
4 3303
5 3304
1 3305
1 3306
4 3307
2 3308
2 3309
7 3310
6 3311
4 3312
8 3313
2 3314
3 3315
7 3316
5 3317
5 3318
3 3319
2 3320
4 3321
5 3322
1 3323
2 3324
1 3325
5 3326
7 3327
4 3328
3 3329
3 3330
1 3331
6 3332
4 3333
3 3334
3 3335
6 3336
5 3337
0 3338
4 3339
3 3340
2 3341
2 3342
1 3343
7 3344
6 3345
3 3346
7 3347
1 3348
3 3349
7 3350
4 3351
0 3352
4 3353
4 3354
6 3355
2 3356
4 3357
6 3358
6 3359
1 3360
4 3361
2 3362
5 3363
0 3364
2 3365
4 3366
2 3367
0 3368
5 3369
5 3370
5 3371
2 3372
7 3373
5 3374
4 3375
2 3376
5 3377
5 3378
2 3379
7 3380
2 3381
8 3382
2 3383
1 3384
3 3385
1 3386
6 3387
2 3388
2 3389
8 3390
0 3391
5 3392
2 3393
5 3394
2 3395
6 3396
3 3397
6 3398
2 3399
2 3400
4 3401
5 3402
3 3403
2 3404
1 3405
2 3406
8 3407
3 3408
8 3409
2 3410
5 3411
3 3412
1 3413
3 3414
1 3415
7 3416
5 3417
7 3418
2 3419
1 3420
2 3421
3 3422
5 3423
3 3424
7 3425
6 3426
2 3427
5 3428
1 3429
4 3430
4 3431
4 3432
3 3433
5 3434
5 3435
1 3436
5 3437
1 3438
3 3439
4 3440
4 3441
3 3442
2 3443
4 3444
4 3445
7 3446
2 3447
6 3448
3 3449
1 3450
6 3451
2 3452
5 3453
2 3454
2 3455
5 3456
2 3457
6 3458
1 3459
7 3460
4 3461
6 3462
1 3463
5 3464
4 3465
1 3466
4 3467
5 3468
4 3469
3 3470
8 3471
6 3472
6 3473
7 3474
6 3475
2 3476
1 3477
0 3478
5 3479
4 3480
3 3481
2 3482
2 3483
1 3484
5 3485
2 3486
6 3487
4 3488
4 3489
3 3490
1 3491
3 3492
5 3493
4 3494
4 3495
1 3496
1 3497
2 3498
3 3499
5 3500
2 3501
1 3502
6 3503
6 3504
6 3505
4 3506
3 3507
3 3508
4 3509
9 3510
2 3511
2 3512
5 3513
2 3514
6 3515
0 3516
3 3517
4 3518
2 3519
2 3520
3 3521
6 3522
1 3523
3 3524
3 3525
3 3526
3 3527
6 3528
4 3529
5 3530
3 3531
9 3532
2 3533
6 3534
6 3535
2 3536
3 3537
5 3538
1 3539
0 3540
3 3541
9 3542
2 3543
3 3544
4 3545
1 3546
3 3547
1 3548
1 3549
2 3550
3 3551
7 3552
2 3553
3 3554
3 3555
2 3556
5 3557
2 3558
3 3559
6 3560
4 3561
3 3562
4 3563
5 3564
4 3565
5 3566
6 3567
2 3568
2 3569
4 3570
2 3571
4 3572
1 3573
1 3574
3 3575
6 3576
5 3577
3 3578
2 3579
0 3580
2 3581
5 3582
2 3583
4 3584
6 3585
3 3586
2 3587
2 3588
0 3589
5 3590
6 3591
1 3592
5 3593
4 3594
0 3595
3 3596
5 3597
6 3598
6 3599
5 3600
3 3601
3 3602
3 3603
3 3604
6 3605
2 3606
5 3607
4 3608
3 3609
2 3610
0 3611
3 3612
5 3613
2 3614
4 3615
2 3616
2 3617
4 3618
5 3619
0 3620
5 3621
2 3622
7 3623
7 3624
0 3625
4 3626
3 3627
4 3628
3 3629
1 3630
3 3631
2 3632
0 3633
4 3634
3 3635
1 3636
5 3637
3 3638
6 3639
1 3640
2 3641
3 3642
4 3643
3 3644
1 3645
4 3646
3 3647
1 3648
2 3649
1 3650
1 3651
3 3652
4 3653
1 3654
3 3655
1 3656
7 3657
2 3658
1 3659
4 3660
5 3661
3 3662
4 3663
1 3664
2 3665
2 3666
5 3667
1 3668
7 3669
1 3670
2 3671
8 3672
8 3673
5 3674
5 3675
4 3676
3 3677
4 3678
1 3679
4 3680
4 3681
5 3682
8 3683
2 3684
6 3685
2 3686
5 3687
5 3688
2 3689
4 3690
3 3691
1 3692
5 3693
2 3694
1 3695
1 3696
4 3697
3 3698
5 3699
4 3700
4 3701
2 3702
2 3703
2 3704
1 3705
5 3706
1 3707
0 3708
3 3709
7 3710
2 3711
1 3712
3 3713
3 3714
3 3715
3 3716
8 3717
5 3718
2 3719
5 3720
5 3721
1 3722
4 3723
2 3724
1 3725
4 3726
5 3727
4 3728
3 3729
6 3730
2 3731
6 3732
5 3733
5 3734
4 3735
4 3736
4 3737
2 3738
4 3739
3 3740
6 3741
6 3742
4 3743
7 3744
1 3745
1 3746
1 3747
7 3748
6 3749
1 3750
5 3751
4 3752
1 3753
3 3754
2 3755
4 3756
5 3757
4 3758
2 3759
4 3760
5 3761
2 3762
3 3763
4 3764
1 3765
5 3766
2 3767
5 3768
7 3769
2 3770
6 3771
2 3772
1 3773
4 3774
3 3775
0 3776
2 3777
0 3778
1 3779
7 3780
2 3781
6 3782
1 3783
0 3784
3 3785
2 3786
4 3787
4 3788
4 3789
4 3790
1 3791
0 3792
2 3793
2 3794
3 3795
9 3796
4 3797
2 3798
6 3799
5 3800
3 3801
1 3802
2 3803
4 3804
1 3805
4 3806
1 3807
3 3808
6 3809
7 3810
4 3811
2 3812
4 3813
4 3814
5 3815
1 3816
1 3817
5 3818
2 3819
4 3820
3 3821
1 3822
3 3823
5 3824
0 3825
1 3826
4 3827
4 3828
2 3829
2 3830
4 3831
1 3832
1 3833
3 3834
4 3835
6 3836
0 3837
5 3838
2 3839
2 3840
7 3841
6 3842
4 3843
7 3844
1 3845
4 3846
4 3847
3 3848
6 3849
2 3850
2 3851
7 3852
3 3853
1 3854
1 3855
4 3856
7 3857
6 3858
3 3859
4 3860
4 3861
4 3862
1 3863
4 3864
5 3865
3 3866
4 3867
1 3868
5 3869
6 3870
1 3871
1 3872
2 3873
9 3874
7 3875
2 3876
4 3877
1 3878
3 3879
5 3880
3 3881
1 3882
2 3883
2 3884
4 3885
2 3886
2 3887
3 3888
0 3889
4 3890
2 3891
3 3892
1 3893
2 3894
6 3895
4 3896
3 3897
5 3898
1 3899
3 3900
3 3901
6 3902
2 3903
1 3904
4 3905
2 3906
1 3907
4 3908
5 3909
2 3910
2 3911
2 3912
6 3913
5 3914
5 3915
5 3916
0 3917
2 3918
5 3919
5 3920
1 3921
7 3922
3 3923
4 3924
3 3925
5 3926
3 3927
5 3928
4 3929
6 3930
1 3931
3 3932
2 3933
1 3934
3 3935
4 3936
2 3937
4 3938
3 3939
5 3940
7 3941
6 3942
3 3943
3 3944
6 3945
2 3946
3 3947
3 3948
0 3949
1 3950
6 3951
2 3952
2 3953
1 3954
2 3955
2 3956
5 3957
5 3958
1 3959
6 3960
7 3961
2 3962
8 3963
2 3964
4 3965
5 3966
2 3967
1 3968
6 3969
1 3970
1 3971
4 3972
3 3973
7 3974
6 3975
4 3976
3 3977
1 3978
1 3979
2 3980
4 3981
3 3982
3 3983
2 3984
3 3985
3 3986
4 3987
5 3988
7 3989
3 3990
2 3991
5 3992
3 3993
1 3994
6 3995
8 3996
2 3997
6 3998
6 3999
3 4000
1 4001
3 4002
4 4003
0 4004
5 4005
3 4006
2 4007
4 4008
5 4009
4 4010
3 4011
2 4012
7 4013
1 4014
2 4015
0 4016
4 4017
4 4018
3 4019
4 4020
6 4021
4 4022
2 4023
9 4024
3 4025
4 4026
4 4027
1 4028
0 4029
1 4030
6 4031
1 4032
2 4033
0 4034
3 4035
8 4036
2 4037
3 4038
2 4039
3 4040
5 4041
2 4042
0 4043
1 4044
2 4045
4 4046
3 4047
5 4048
3 4049
3 4050
5 4051
2 4052
2 4053
0 4054
2 4055
6 4056
3 4057
5 4058
2 4059
5 4060
4 4061
5 4062
5 4063
4 4064
1 4065
3 4066
6 4067
6 4068
4 4069
2 4070
3 4071
3 4072
4 4073
3 4074
4 4075
2 4076
2 4077
5 4078
0 4079
5 4080
3 4081
1 4082
0 4083
3 4084
5 4085
1 4086
3 4087
0 4088
4 4089
5 4090
2 4091
7 4092
4 4093
1 4094
4 4095
1 4096
3 4097
3 4098
1 4099
7 4100
8 4101
1 4102
3 4103
3 4104
5 4105
3 4106
4 4107
4 4108
1 4109
8 4110
6 4111
1 4112
3 4113
5 4114
4 4115
2 4116
4 4117
5 4118
2 4119
6 4120
6 4121
1 4122
3 4123
2 4124
3 4125
2 4126
5 4127
5 4128
3 4129
4 4130
3 4131
6 4132
1 4133
6 4134
1 4135
1 4136
3 4137
4 4138
4 4139
2 4140
2 4141
3 4142
5 4143
3 4144
6 4145
4 4146
3 4147
2 4148
4 4149
4 4150
7 4151
7 4152
1 4153
4 4154
2 4155
7 4156
3 4157
5 4158
4 4159
6 4160
0 4161
6 4162
7 4163
5 4164
5 4165
2 4166
5 4167
2 4168
2 4169
1 4170
2 4171
4 4172
8 4173
4 4174
4 4175
5 4176
5 4177
8 4178
1 4179
2 4180
2 4181
3 4182
1 4183
3 4184
2 4185
1 4186
4 4187
4 4188
1 4189
1 4190
6 4191
4 4192
5 4193
3 4194
2 4195
4 4196
2 4197
7 4198
4 4199
5 4200
3 4201
3 4202
2 4203
1 4204
6 4205
3 4206
5 4207
1 4208
7 4209
3 4210
4 4211
3 4212
0 4213
3 4214
4 4215
2 4216
8 4217
3 4218
3 4219
3 4220
1 4221
1 4222
0 4223
3 4224
1 4225
2 4226
3 4227
6 4228
3 4229
3 4230
3 4231
5 4232
5 4233
5 4234
5 4235
2 4236
2 4237
3 4238
3 4239
7 4240
2 4241
4 4242
3 4243
4 4244
7 4245
1 4246
0 4247
3 4248
4 4249
7 4250
4 4251
2 4252
5 4253
6 4254
2 4255
1 4256
6 4257
2 4258
4 4259
2 4260
2 4261
1 4262
1 4263
6 4264
2 4265
5 4266
4 4267
1 4268
2 4269
0 4270
1 4271
3 4272
0 4273
3 4274
3 4275
1 4276
7 4277
4 4278
6 4279
1 4280
5 4281
6 4282
4 4283
4 4284
7 4285
4 4286
0 4287
5 4288
4 4289
4 4290
1 4291
1 4292
0 4293
1 4294
3 4295
2 4296
5 4297
1 4298
5 4299
3 4300
5 4301
2 4302
5 4303
6 4304
3 4305
3 4306
0 4307
2 4308
4 4309
5 4310
6 4311
0 4312
4 4313
5 4314
1 4315
2 4316
3 4317
2 4318
4 4319
5 4320
6 4321
2 4322
3 4323
4 4324
4 4325
2 4326
6 4327
3 4328
2 4329
2 4330
0 4331
4 4332
8 4333
6 4334
2 4335
5 4336
0 4337
1 4338
0 4339
1 4340
0 4341
6 4342
6 4343
3 4344
1 4345
2 4346
2 4347
1 4348
2 4349
3 4350
0 4351
3 4352
6 4353
7 4354
4 4355
2 4356
2 4357
2 4358
0 4359
3 4360
3 4361
3 4362
4 4363
2 4364
3 4365
3 4366
3 4367
2 4368
5 4369
4 4370
8 4371
4 4372
7 4373
5 4374
2 4375
1 4376
2 4377
1 4378
1 4379
3 4380
2 4381
0 4382
2 4383
6 4384
6 4385
3 4386
2 4387
6 4388
3 4389
8 4390
2 4391
6 4392
5 4393
4 4394
8 4395
3 4396
1 4397
1 4398
7 4399
2 4400
3 4401
1 4402
4 4403
3 4404
3 4405
          10 4406
3 4407
4 4408
3 4409
2 4410
4 4411
2 4412
8 4413
3 4414
5 4415
2 4416
1 4417
0 4418
4 4419
3 4420
7 4421
4 4422
2 4423
1 4424
5 4425
3 4426
1 4427
4 4428
3 4429
2 4430
4 4431
4 4432
2 4433
5 4434
6 4435
4 4436
6 4437
2 4438
2 4439
3 4440
4 4441
2 4442
3 4443
5 4444
3 4445
4 4446
1 4447
2 4448
2 4449
4 4450
1 4451
7 4452
3 4453
3 4454
2 4455
5 4456
2 4457
3 4458
0 4459
2 4460
6 4461
1 4462
3 4463
5 4464
3 4465
5 4466
6 4467
7 4468
2 4469
0 4470
3 4471
4 4472
5 4473
2 4474
2 4475
4 4476
1 4477
8 4478
5 4479
6 4480
2 4481
2 4482
5 4483
6 4484
1 4485
3 4486
3 4487
1 4488
3 4489
0 4490
2 4491
3 4492
1 4493
0 4494
4 4495
6 4496
7 4497
5 4498
6 4499
3 4500
1 4501
2 4502
5 4503
1 4504
3 4505
2 4506
5 4507
3 4508
2 4509
2 4510
6 4511
1 4512
7 4513
5 4514
2 4515
5 4516
5 4517
4 4518
6 4519
4 4520
0 4521
4 4522
6 4523
3 4524
3 4525
1 4526
4 4527
0 4528
4 4529
3 4530
3 4531
1 4532
1 4533
3 4534
5 4535
4 4536
1 4537
1 4538
0 4539
2 4540
2 4541
6 4542
4 4543
1 4544
9 4545
1 4546
2 4547
0 4548
4 4549
9 4550
0 4551
2 4552
2 4553
2 4554
5 4555
5 4556
1 4557
3 4558
1 4559
1 4560
4 4561
3 4562
0 4563
4 4564
0 4565
6 4566
3 4567
0 4568
4 4569
3 4570
5 4571
3 4572
4 4573
2 4574
4 4575
0 4576
3 4577
2 4578
4 4579
5 4580
4 4581
3 4582
5 4583
0 4584
1 4585
4 4586
5 4587
1 4588
7 4589
3 4590
6 4591
4 4592
4 4593
1 4594
0 4595
4 4596
5 4597
3 4598
2 4599
4 4600
1 4601
3 4602
6 4603
4 4604
1 4605
3 4606
6 4607
2 4608
4 4609
0 4610
6 4611
2 4612
4 4613
3 4614
2 4615
4 4616
2 4617
2 4618
0 4619
4 4620
3 4621
1 4622
6 4623
3 4624
5 4625
6 4626
2 4627
6 4628
4 4629
2 4630
4 4631
0 4632
1 4633
5 4634
4 4635
2 4636
1 4637
3 4638
2 4639
6 4640
2 4641
2 4642
4 4643
6 4644
5 4645
3 4646
1 4647
7 4648
5 4649
1 4650
1 4651
3 4652
3 4653
3 4654
3 4655
2 4656
1 4657
3 4658
0 4659
2 4660
4 4661
2 4662
3 4663
9 4664
3 4665
4 4666
4 4667
3 4668
4 4669
4 4670
0 4671
5 4672
3 4673
0 4674
1 4675
3 4676
4 4677
3 4678
2 4679
2 4680
3 4681
8 4682
0 4683
4 4684
4 4685
3 4686
3 4687
3 4688
4 4689
3 4690
8 4691
1 4692
4 4693
3 4694
1 4695
6 4696
3 4697
7 4698
3 4699
1 4700
5 4701
5 4702
7 4703
2 4704
4 4705
4 4706
6 4707
2 4708
5 4709
1 4710
7 4711
2 4712
2 4713
1 4714
2 4715
5 4716
0 4717
5 4718
1 4719
4 4720
0 4721
1 4722
1 4723
6 4724
5 4725
3 4726
3 4727
2 4728
6 4729
2 4730
4 4731
5 4732
0 4733
3 4734
5 4735
1 4736
3 4737
2 4738
4 4739
7 4740
3 4741
4 4742
5 4743
8 4744
6 4745
4 4746
3 4747
2 4748
4 4749
2 4750
4 4751
5 4752
1 4753
4 4754
4 4755
1 4756
3 4757
2 4758
2 4759
3 4760
0 4761
8 4762
1 4763
6 4764
4 4765
3 4766
5 4767
2 4768
2 4769
3 4770
3 4771
2 4772
4 4773
4 4774
3 4775
0 4776
3 4777
3 4778
3 4779
4 4780
0 4781
4 4782
3 4783
1 4784
1 4785
4 4786
3 4787
2 4788
0 4789
2 4790
3 4791
3 4792
4 4793
6 4794
1 4795
6 4796
1 4797
1 4798
1 4799
6 4800
5 4801
3 4802
6 4803
1 4804
1 4805
1 4806
7 4807
4 4808
5 4809
5 4810
4 4811
5 4812
1 4813
5 4814
2 4815
2 4816
3 4817
4 4818
2 4819
6 4820
3 4821
6 4822
5 4823
2 4824
3 4825
1 4826
3 4827
2 4828
1 4829
6 4830
0 4831
4 4832
0 4833
3 4834
1 4835
1 4836
3 4837
6 4838
4 4839
1 4840
3 4841
3 4842
2 4843
6 4844
4 4845
0 4846
6 4847
3 4848
3 4849
4 4850
2 4851
4 4852
0 4853
6 4854
2 4855
2 4856
3 4857
3 4858
2 4859
4 4860
4 4861
0 4862
4 4863
0 4864
1 4865
3 4866
1 4867
7 4868
2 4869
3 4870
3 4871
3 4872
4 4873
2 4874
1 4875
2 4876
3 4877
7 4878
5 4879
4 4880
0 4881
1 4882
3 4883
2 4884
7 4885
2 4886
5 4887
4 4888
2 4889
5 4890
5 4891
4 4892
1 4893
0 4894
2 4895
3 4896
1 4897
1 4898
4 4899
3 4900
4 4901
6 4902
3 4903
4 4904
5 4905
4 4906
2 4907
1 4908
3 4909
2 4910
3 4911
6 4912
5 4913
4 4914
3 4915
2 4916
1 4917
3 4918
5 4919
1 4920
2 4921
3 4922
3 4923
0 4924
9 4925
6 4926
0 4927
4 4928
1 4929
5 4930
1 4931
4 4932
7 4933
6 4934
4 4935
5 4936
2 4937
3 4938
3 4939
2 4940
3 4941
5 4942
2 4943
5 4944
4 4945
5 4946
5 4947
3 4948
4 4949
5 4950
7 4951
6 4952
4 4953
6 4954
4 4955
3 4956
1 4957
6 4958
2 4959
6 4960
5 4961
0 4962
4 4963
1 4964
          10 4965
2 4966
2 4967
3 4968
5 4969
4 4970
2 4971
1 4972
3 4973
3 4974
1 4975
3 4976
1 4977
1 4978
3 4979
4 4980
3 4981
4 4982
4 4983
5 4984
6 4985
2 4986
2 4987
5 4988
1 4989
3 4990
3 4991
2 4992
4 4993
6 4994
6 4995
3 4996
1 4997
2 4998
5 4999
4 5000
4 5001
3 5002
3 5003
8 5004
5 5005
1 5006
5 5007
7 5008
1 5009
5 5010
5 5011
6 5012
3 5013
0 5014
3 5015
2 5016
2 5017
1 5018
3 5019
5 5020
2 5021
7 5022
5 5023
3 5024
6 5025
2 5026
2 5027
1 5028
2 5029
3 5030
2 5031
7 5032
3 5033
4 5034
6 5035
4 5036
3 5037
2 5038
0 5039
7 5040
7 5041
1 5042
6 5043
4 5044
2 5045
          10 5046
4 5047
2 5048
6 5049
1 5050
2 5051
3 5052
5 5053
3 5054
7 5055
2 5056
5 5057
7 5058
4 5059
1 5060
0 5061
3 5062
0 5063
5 5064
4 5065
2 5066
4 5067
0 5068
1 5069
2 5070
5 5071
2 5072
1 5073
3 5074
5 5075
0 5076
1 5077
1 5078
2 5079
6 5080
0 5081
6 5082
1 5083
1 5084
6 5085
3 5086
1 5087
1 5088
4 5089
3 5090
2 5091
3 5092
0 5093
4 5094
6 5095
1 5096
0 5097
4 5098
6 5099
3 5100
3 5101
5 5102
3 5103
1 5104
1 5105
5 5106
2 5107
1 5108
4 5109
2 5110
1 5111
5 5112
6 5113
2 5114
3 5115
1 5116
6 5117
4 5118
3 5119
5 5120
1 5121
5 5122
3 5123
4 5124
3 5125
6 5126
5 5127
