0 1
8 2
0 3
0 4
0 5
0 6
0 7
5 8
0 9
5 10
0 11
0 12
0 13
6 14
0 15
0 16
0 17
1 18
0 19
0 20
0 21
0 22
0 23
0 24
0 25
2 26
0 27
0 28
0 29
5 30
0 31
0 32
0 33
0 34
0 35
0 36
0 37
0 38
7 39
0 40
0 41
0 42
2 43
0 44
0 45
0 46
5 47
0 48
0 49
0 50
2 51
0 52
0 53
0 54
0 55
0 56
0 57
7 58
0 59
0 60
7 61
0 62
0 63
1 64
0 65
5 66
0 67
0 68
5 69
3 70
0 71
0 72
0 73
0 74
5 75
0 76
0 77
0 78
0 79
0 80
0 81
0 82
1 83
0 84
5 85
4 86
0 87
6 88
0 89
0 90
6 91
0 92
0 93
3 94
4 95
0 96
0 97
0 98
0 99
0 100
0 101
5 102
1 103
0 104
0 105
0 106
0 107
0 108
1 109
2 110
0 111
0 112
0 113
0 114
0 115
0 116
3 117
0 118
0 119
1 120
0 121
1 122
0 123
0 124
5 125
0 126
0 127
5 128
5 129
0 130
0 131
1 132
6 133
5 134
0 135
0 136
6 137
0 138
0 139
0 140
2 141
0 142
0 143
4 144
0 145
4 146
6 147
5 148
0 149
0 150
4 151
0 152
0 153
5 154
0 155
1 156
0 157
6 158
0 159
0 160
3 161
0 162
3 163
0 164
3 165
0 166
0 167
2 168
5 169
0 170
0 171
1 172
0 173
0 174
1 175
3 176
0 177
2 178
1 179
0 180
0 181
4 182
0 183
0 184
0 185
1 186
5 187
5 188
6 189
0 190
0 191
0 192
0 193
0 194
0 195
0 196
5 197
0 198
6 199
4 200
2 201
7 202
5 203
3 204
0 205
6 206
0 207
0 208
2 209
0 210
5 211
0 212
0 213
0 214
5 215
0 216
5 217
0 218
5 219
0 220
6 221
0 222
4 223
8 224
0 225
0 226
0 227
1 228
0 229
5 230
0 231
0 232
5 233
0 234
0 235
0 236
0 237
4 238
0 239
0 240
0 241
0 242
0 243
          10 244
5 245
0 246
0 247
0 248
0 249
5 250
4 251
3 252
2 253
0 254
3 255
0 256
0 257
0 258
1 259
0 260
5 261
5 262
8 263
0 264
5 265
1 266
0 267
0 268
0 269
0 270
0 271
0 272
0 273
5 274
3 275
0 276
5 277
0 278
0 279
0 280
1 281
4 282
0 283
0 284
0 285
0 286
4 287
0 288
0 289
0 290
0 291
0 292
0 293
0 294
0 295
0 296
0 297
0 298
4 299
0 300
5 301
5 302
0 303
5 304
2 305
0 306
0 307
0 308
0 309
5 310
5 311
5 312
6 313
4 314
0 315
5 316
5 317
0 318
0 319
5 320
5 321
0 322
0 323
0 324
3 325
0 326
0 327
0 328
1 329
5 330
0 331
5 332
0 333
0 334
0 335
0 336
5 337
0 338
0 339
0 340
0 341
5 342
0 343
0 344
5 345
2 346
4 347
0 348
0 349
0 350
0 351
0 352
0 353
0 354
5 355
0 356
0 357
0 358
1 359
5 360
0 361
0 362
0 363
5 364
0 365
0 366
0 367
0 368
0 369
0 370
5 371
5 372
0 373
0 374
5 375
0 376
0 377
0 378
0 379
4 380
4 381
4 382
0 383
0 384
5 385
0 386
0 387
5 388
0 389
0 390
0 391
0 392
0 393
5 394
0 395
          10 396
1 397
2 398
0 399
0 400
1 401
0 402
0 403
1 404
0 405
0 406
5 407
4 408
0 409
0 410
0 411
0 412
1 413
0 414
0 415
0 416
0 417
7 418
1 419
0 420
7 421
0 422
0 423
0 424
0 425
0 426
5 427
6 428
8 429
0 430
0 431
0 432
0 433
2 434
0 435
0 436
5 437
0 438
0 439
3 440
0 441
1 442
0 443
0 444
5 445
0 446
0 447
0 448
0 449
0 450
0 451
0 452
3 453
0 454
2 455
3 456
0 457
0 458
0 459
0 460
5 461
0 462
0 463
0 464
0 465
0 466
5 467
0 468
5 469
0 470
3 471
0 472
0 473
0 474
5 475
0 476
0 477
0 478
5 479
0 480
1 481
0 482
0 483
5 484
0 485
7 486
3 487
1 488
0 489
5 490
0 491
5 492
0 493
0 494
0 495
0 496
0 497
0 498
0 499
0 500
5 501
0 502
0 503
0 504
0 505
1 506
7 507
0 508
0 509
0 510
0 511
2 512
0 513
0 514
0 515
5 516
0 517
0 518
4 519
1 520
0 521
0 522
5 523
0 524
5 525
5 526
0 527
0 528
0 529
3 530
4 531
0 532
5 533
0 534
0 535
5 536
0 537
5 538
1 539
0 540
0 541
0 542
0 543
0 544
1 545
0 546
0 547
0 548
0 549
0 550
6 551
2 552
5 553
0 554
0 555
1 556
2 557
5 558
5 559
0 560
5 561
0 562
0 563
0 564
0 565
0 566
0 567
1 568
0 569
0 570
0 571
0 572
0 573
0 574
0 575
6 576
0 577
0 578
0 579
0 580
2 581
0 582
3 583
0 584
0 585
0 586
7 587
5 588
5 589
2 590
0 591
0 592
2 593
0 594
0 595
9 596
0 597
0 598
0 599
5 600
0 601
5 602
5 603
0 604
0 605
2 606
0 607
0 608
0 609
5 610
0 611
5 612
0 613
5 614
5 615
0 616
0 617
5 618
1 619
0 620
0 621
0 622
5 623
0 624
5 625
0 626
9 627
0 628
0 629
0 630
0 631
5 632
5 633
0 634
1 635
0 636
5 637
0 638
5 639
0 640
0 641
0 642
0 643
0 644
0 645
0 646
0 647
0 648
0 649
5 650
5 651
0 652
6 653
0 654
0 655
3 656
5 657
0 658
5 659
0 660
0 661
5 662
0 663
          10 664
4 665
0 666
0 667
2 668
0 669
5 670
2 671
0 672
5 673
0 674
1 675
5 676
0 677
0 678
4 679
0 680
0 681
1 682
5 683
0 684
0 685
0 686
0 687
0 688
7 689
0 690
5 691
0 692
0 693
0 694
0 695
0 696
4 697
2 698
0 699
0 700
0 701
0 702
0 703
0 704
0 705
0 706
0 707
1 708
0 709
0 710
0 711
2 712
0 713
0 714
0 715
0 716
5 717
0 718
1 719
0 720
1 721
1 722
5 723
0 724
1 725
0 726
0 727
0 728
0 729
0 730
0 731
0 732
6 733
0 734
0 735
0 736
0 737
0 738
1 739
5 740
0 741
0 742
0 743
0 744
0 745
3 746
6 747
0 748
0 749
0 750
0 751
0 752
0 753
6 754
0 755
0 756
5 757
0 758
0 759
5 760
0 761
5 762
7 763
0 764
0 765
2 766
0 767
5 768
5 769
5 770
0 771
1 772
0 773
0 774
0 775
0 776
9 777
2 778
2 779
0 780
0 781
1 782
5 783
0 784
5 785
5 786
0 787
5 788
0 789
0 790
0 791
0 792
5 793
0 794
0 795
0 796
0 797
0 798
0 799
0 800
0 801
0 802
3 803
0 804
0 805
1 806
5 807
0 808
0 809
0 810
0 811
0 812
1 813
6 814
0 815
0 816
1 817
5 818
5 819
0 820
5 821
6 822
0 823
0 824
0 825
0 826
0 827
0 828
0 829
0 830
0 831
0 832
0 833
0 834
0 835
0 836
0 837
0 838
0 839
0 840
5 841
0 842
0 843
0 844
0 845
5 846
3 847
0 848
1 849
0 850
0 851
0 852
0 853
0 854
5 855
5 856
0 857
0 858
0 859
0 860
0 861
0 862
5 863
0 864
5 865
1 866
0 867
0 868
0 869
0 870
6 871
0 872
0 873
0 874
5 875
0 876
0 877
0 878
0 879
0 880
0 881
0 882
5 883
0 884
3 885
0 886
0 887
0 888
4 889
2 890
0 891
5 892
0 893
1 894
1 895
0 896
4 897
5 898
0 899
0 900
0 901
0 902
0 903
0 904
0 905
0 906
0 907
5 908
0 909
0 910
5 911
2 912
0 913
5 914
0 915
0 916
1 917
0 918
0 919
5 920
5 921
0 922
5 923
5 924
0 925
5 926
0 927
0 928
0 929
2 930
0 931
0 932
5 933
0 934
0 935
0 936
0 937
5 938
0 939
0 940
0 941
5 942
0 943
5 944
0 945
0 946
0 947
0 948
0 949
0 950
0 951
5 952
0 953
0 954
2 955
4 956
0 957
0 958
0 959
1 960
0 961
0 962
0 963
6 964
0 965
2 966
0 967
0 968
2 969
0 970
0 971
0 972
0 973
0 974
0 975
0 976
0 977
1 978
0 979
0 980
0 981
0 982
3 983
0 984
6 985
0 986
0 987
0 988
0 989
0 990
1 991
0 992
0 993
0 994
0 995
2 996
5 997
0 998
0 999
0 1000
0 1001
0 1002
2 1003
0 1004
1 1005
0 1006
0 1007
0 1008
3 1009
0 1010
0 1011
5 1012
0 1013
0 1014
0 1015
0 1016
1 1017
0 1018
0 1019
1 1020
3 1021
0 1022
0 1023
0 1024
3 1025
0 1026
0 1027
0 1028
0 1029
1 1030
0 1031
5 1032
0 1033
0 1034
0 1035
5 1036
0 1037
3 1038
5 1039
0 1040
0 1041
1 1042
5 1043
2 1044
0 1045
3 1046
6 1047
3 1048
0 1049
0 1050
0 1051
0 1052
5 1053
0 1054
0 1055
0 1056
1 1057
5 1058
0 1059
0 1060
0 1061
5 1062
0 1063
2 1064
0 1065
0 1066
0 1067
5 1068
0 1069
5 1070
0 1071
3 1072
5 1073
4 1074
8 1075
5 1076
0 1077
1 1078
0 1079
1 1080
5 1081
1 1082
5 1083
0 1084
2 1085
5 1086
0 1087
0 1088
0 1089
0 1090
0 1091
4 1092
0 1093
0 1094
0 1095
5 1096
0 1097
9 1098
0 1099
0 1100
0 1101
0 1102
0 1103
5 1104
0 1105
1 1106
0 1107
0 1108
0 1109
0 1110
0 1111
2 1112
1 1113
0 1114
5 1115
0 1116
5 1117
1 1118
6 1119
0 1120
0 1121
0 1122
0 1123
3 1124
          10 1125
0 1126
7 1127
0 1128
0 1129
0 1130
0 1131
0 1132
0 1133
3 1134
5 1135
6 1136
5 1137
5 1138
0 1139
4 1140
0 1141
0 1142
0 1143
0 1144
0 1145
5 1146
5 1147
0 1148
0 1149
1 1150
0 1151
0 1152
0 1153
0 1154
0 1155
0 1156
0 1157
0 1158
0 1159
5 1160
0 1161
0 1162
1 1163
5 1164
0 1165
0 1166
5 1167
0 1168
3 1169
5 1170
5 1171
0 1172
0 1173
0 1174
5 1175
5 1176
0 1177
5 1178
0 1179
0 1180
0 1181
0 1182
1 1183
0 1184
5 1185
0 1186
0 1187
2 1188
1 1189
0 1190
0 1191
7 1192
0 1193
0 1194
0 1195
5 1196
0 1197
0 1198
5 1199
5 1200
0 1201
5 1202
5 1203
5 1204
0 1205
0 1206
5 1207
0 1208
0 1209
0 1210
6 1211
0 1212
0 1213
0 1214
5 1215
4 1216
0 1217
0 1218
0 1219
5 1220
0 1221
0 1222
0 1223
4 1224
5 1225
0 1226
1 1227
5 1228
0 1229
4 1230
0 1231
5 1232
0 1233
0 1234
0 1235
5 1236
0 1237
0 1238
0 1239
0 1240
0 1241
5 1242
0 1243
6 1244
0 1245
1 1246
0 1247
0 1248
6 1249
0 1250
0 1251
0 1252
0 1253
5 1254
5 1255
4 1256
0 1257
0 1258
0 1259
0 1260
0 1261
0 1262
0 1263
0 1264
0 1265
1 1266
0 1267
5 1268
1 1269
0 1270
3 1271
5 1272
0 1273
0 1274
0 1275
5 1276
0 1277
3 1278
0 1279
2 1280
5 1281
0 1282
4 1283
0 1284
0 1285
7 1286
0 1287
0 1288
4 1289
5 1290
5 1291
0 1292
2 1293
0 1294
0 1295
0 1296
0 1297
6 1298
3 1299
3 1300
0 1301
0 1302
5 1303
0 1304
0 1305
0 1306
0 1307
5 1308
0 1309
1 1310
0 1311
5 1312
0 1313
0 1314
0 1315
0 1316
6 1317
0 1318
0 1319
2 1320
2 1321
0 1322
5 1323
0 1324
0 1325
0 1326
3 1327
0 1328
0 1329
0 1330
0 1331
4 1332
0 1333
0 1334
0 1335
0 1336
0 1337
6 1338
6 1339
0 1340
0 1341
1 1342
0 1343
0 1344
0 1345
5 1346
0 1347
0 1348
0 1349
0 1350
5 1351
3 1352
0 1353
1 1354
0 1355
5 1356
5 1357
5 1358
3 1359
0 1360
0 1361
0 1362
0 1363
0 1364
5 1365
0 1366
0 1367
5 1368
          10 1369
5 1370
0 1371
5 1372
5 1373
0 1374
0 1375
2 1376
1 1377
5 1378
0 1379
0 1380
5 1381
1 1382
5 1383
4 1384
0 1385
0 1386
0 1387
4 1388
0 1389
0 1390
0 1391
6 1392
0 1393
2 1394
0 1395
0 1396
0 1397
5 1398
0 1399
0 1400
1 1401
0 1402
0 1403
0 1404
0 1405
0 1406
5 1407
0 1408
0 1409
8 1410
3 1411
0 1412
0 1413
0 1414
5 1415
5 1416
0 1417
5 1418
0 1419
0 1420
1 1421
0 1422
5 1423
0 1424
0 1425
5 1426
0 1427
0 1428
5 1429
0 1430
0 1431
0 1432
0 1433
9 1434
0 1435
0 1436
0 1437
0 1438
0 1439
4 1440
0 1441
5 1442
4 1443
0 1444
5 1445
0 1446
4 1447
0 1448
0 1449
0 1450
5 1451
0 1452
0 1453
0 1454
1 1455
0 1456
0 1457
0 1458
0 1459
4 1460
0 1461
5 1462
1 1463
0 1464
0 1465
5 1466
0 1467
0 1468
0 1469
0 1470
0 1471
0 1472
5 1473
0 1474
0 1475
0 1476
0 1477
5 1478
0 1479
0 1480
0 1481
0 1482
0 1483
4 1484
4 1485
0 1486
0 1487
0 1488
0 1489
5 1490
4 1491
4 1492
0 1493
0 1494
4 1495
0 1496
0 1497
0 1498
5 1499
5 1500
0 1501
0 1502
1 1503
0 1504
2 1505
0 1506
5 1507
5 1508
0 1509
0 1510
0 1511
0 1512
1 1513
1 1514
4 1515
0 1516
0 1517
0 1518
0 1519
6 1520
0 1521
0 1522
0 1523
0 1524
5 1525
0 1526
5 1527
6 1528
0 1529
5 1530
0 1531
0 1532
0 1533
4 1534
0 1535
0 1536
0 1537
0 1538
0 1539
1 1540
0 1541
0 1542
2 1543
4 1544
5 1545
0 1546
0 1547
0 1548
0 1549
0 1550
0 1551
5 1552
0 1553
0 1554
0 1555
5 1556
0 1557
0 1558
0 1559
0 1560
0 1561
0 1562
0 1563
5 1564
5 1565
1 1566
0 1567
0 1568
0 1569
0 1570
0 1571
0 1572
1 1573
0 1574
0 1575
5 1576
0 1577
0 1578
2 1579
0 1580
0 1581
5 1582
0 1583
1 1584
5 1585
5 1586
0 1587
0 1588
0 1589
0 1590
0 1591
0 1592
0 1593
2 1594
8 1595
0 1596
5 1597
0 1598
5 1599
0 1600
0 1601
6 1602
0 1603
2 1604
0 1605
0 1606
0 1607
3 1608
2 1609
5 1610
0 1611
1 1612
5 1613
5 1614
6 1615
0 1616
0 1617
5 1618
0 1619
5 1620
5 1621
1 1622
0 1623
0 1624
0 1625
0 1626
0 1627
1 1628
0 1629
1 1630
9 1631
0 1632
2 1633
0 1634
0 1635
0 1636
0 1637
0 1638
0 1639
0 1640
4 1641
0 1642
0 1643
0 1644
5 1645
0 1646
3 1647
2 1648
0 1649
2 1650
0 1651
0 1652
5 1653
5 1654
0 1655
0 1656
0 1657
4 1658
0 1659
5 1660
0 1661
0 1662
0 1663
0 1664
0 1665
2 1666
0 1667
7 1668
0 1669
0 1670
0 1671
2 1672
0 1673
2 1674
4 1675
5 1676
0 1677
0 1678
3 1679
0 1680
0 1681
0 1682
5 1683
0 1684
0 1685
3 1686
0 1687
0 1688
5 1689
3 1690
5 1691
6 1692
1 1693
0 1694
0 1695
0 1696
0 1697
0 1698
5 1699
0 1700
0 1701
0 1702
0 1703
0 1704
1 1705
0 1706
0 1707
0 1708
0 1709
0 1710
0 1711
1 1712
0 1713
0 1714
0 1715
1 1716
5 1717
3 1718
5 1719
6 1720
5 1721
0 1722
0 1723
0 1724
0 1725
0 1726
5 1727
0 1728
0 1729
0 1730
5 1731
0 1732
0 1733
0 1734
0 1735
0 1736
3 1737
5 1738
6 1739
5 1740
0 1741
4 1742
0 1743
0 1744
5 1745
0 1746
4 1747
5 1748
3 1749
0 1750
0 1751
0 1752
0 1753
5 1754
0 1755
0 1756
5 1757
0 1758
5 1759
0 1760
5 1761
0 1762
5 1763
0 1764
0 1765
0 1766
0 1767
0 1768
5 1769
0 1770
0 1771
0 1772
0 1773
0 1774
0 1775
5 1776
0 1777
0 1778
0 1779
5 1780
0 1781
6 1782
0 1783
1 1784
0 1785
5 1786
0 1787
0 1788
0 1789
0 1790
4 1791
0 1792
0 1793
0 1794
4 1795
0 1796
0 1797
0 1798
0 1799
5 1800
0 1801
5 1802
0 1803
0 1804
0 1805
0 1806
0 1807
0 1808
0 1809
5 1810
0 1811
5 1812
0 1813
0 1814
4 1815
0 1816
0 1817
0 1818
6 1819
8 1820
5 1821
0 1822
5 1823
0 1824
0 1825
0 1826
4 1827
2 1828
4 1829
0 1830
5 1831
0 1832
2 1833
5 1834
0 1835
0 1836
0 1837
0 1838
1 1839
5 1840
0 1841
0 1842
0 1843
0 1844
0 1845
0 1846
5 1847
0 1848
0 1849
0 1850
0 1851
0 1852
7 1853
0 1854
5 1855
0 1856
0 1857
4 1858
2 1859
0 1860
5 1861
0 1862
5 1863
0 1864
0 1865
0 1866
3 1867
5 1868
1 1869
0 1870
1 1871
2 1872
0 1873
4 1874
0 1875
0 1876
0 1877
0 1878
0 1879
1 1880
0 1881
0 1882
0 1883
0 1884
0 1885
0 1886
0 1887
0 1888
0 1889
5 1890
0 1891
5 1892
0 1893
0 1894
6 1895
5 1896
3 1897
6 1898
0 1899
0 1900
0 1901
0 1902
0 1903
0 1904
0 1905
2 1906
0 1907
5 1908
0 1909
1 1910
0 1911
6 1912
0 1913
8 1914
5 1915
1 1916
5 1917
5 1918
0 1919
0 1920
0 1921
0 1922
5 1923
0 1924
4 1925
0 1926
0 1927
5 1928
0 1929
0 1930
0 1931
3 1932
0 1933
0 1934
5 1935
5 1936
0 1937
0 1938
0 1939
0 1940
3 1941
1 1942
0 1943
7 1944
0 1945
0 1946
0 1947
1 1948
0 1949
0 1950
0 1951
0 1952
0 1953
5 1954
0 1955
6 1956
0 1957
3 1958
2 1959
3 1960
6 1961
1 1962
0 1963
4 1964
0 1965
5 1966
0 1967
0 1968
8 1969
5 1970
0 1971
0 1972
0 1973
0 1974
0 1975
0 1976
0 1977
0 1978
0 1979
0 1980
0 1981
0 1982
0 1983
0 1984
5 1985
0 1986
0 1987
0 1988
0 1989
0 1990
3 1991
1 1992
0 1993
0 1994
0 1995
0 1996
0 1997
0 1998
5 1999
0 2000
0 2001
2 2002
5 2003
0 2004
0 2005
0 2006
0 2007
5 2008
0 2009
0 2010
5 2011
0 2012
0 2013
0 2014
0 2015
0 2016
0 2017
0 2018
0 2019
0 2020
0 2021
1 2022
0 2023
0 2024
0 2025
2 2026
6 2027
0 2028
0 2029
3 2030
4 2031
0 2032
0 2033
0 2034
0 2035
0 2036
0 2037
7 2038
0 2039
0 2040
5 2041
6 2042
0 2043
0 2044
0 2045
0 2046
6 2047
5 2048
0 2049
1 2050
0 2051
1 2052
0 2053
0 2054
0 2055
3 2056
0 2057
6 2058
4 2059
0 2060
1 2061
0 2062
0 2063
5 2064
2 2065
5 2066
0 2067
5 2068
2 2069
2 2070
0 2071
0 2072
0 2073
0 2074
0 2075
5 2076
0 2077
4 2078
7 2079
0 2080
4 2081
0 2082
4 2083
5 2084
3 2085
5 2086
0 2087
5 2088
0 2089
4 2090
2 2091
0 2092
0 2093
0 2094
5 2095
7 2096
0 2097
6 2098
4 2099
4 2100
5 2101
1 2102
5 2103
5 2104
0 2105
0 2106
0 2107
5 2108
0 2109
5 2110
2 2111
0 2112
1 2113
0 2114
0 2115
0 2116
0 2117
5 2118
0 2119
1 2120
4 2121
0 2122
5 2123
0 2124
1 2125
5 2126
0 2127
0 2128
5 2129
2 2130
          10 2131
5 2132
1 2133
0 2134
5 2135
0 2136
5 2137
5 2138
0 2139
0 2140
5 2141
5 2142
1 2143
0 2144
5 2145
5 2146
3 2147
5 2148
0 2149
0 2150
8 2151
0 2152
0 2153
2 2154
0 2155
0 2156
4 2157
0 2158
2 2159
2 2160
5 2161
5 2162
0 2163
0 2164
0 2165
9 2166
1 2167
1 2168
0 2169
5 2170
0 2171
5 2172
0 2173
0 2174
5 2175
0 2176
0 2177
6 2178
0 2179
6 2180
0 2181
0 2182
0 2183
0 2184
0 2185
0 2186
6 2187
0 2188
5 2189
5 2190
0 2191
5 2192
5 2193
0 2194
0 2195
0 2196
4 2197
0 2198
          10 2199
0 2200
0 2201
1 2202
0 2203
8 2204
4 2205
0 2206
0 2207
0 2208
5 2209
3 2210
5 2211
7 2212
6 2213
0 2214
5 2215
5 2216
3 2217
0 2218
0 2219
0 2220
5 2221
7 2222
0 2223
6 2224
5 2225
0 2226
0 2227
0 2228
1 2229
0 2230
0 2231
0 2232
0 2233
8 2234
5 2235
1 2236
2 2237
0 2238
0 2239
2 2240
5 2241
          10 2242
6 2243
1 2244
5 2245
0 2246
4 2247
5 2248
0 2249
4 2250
0 2251
0 2252
5 2253
0 2254
5 2255
0 2256
2 2257
0 2258
0 2259
0 2260
4 2261
1 2262
0 2263
7 2264
0 2265
3 2266
1 2267
0 2268
0 2269
5 2270
1 2271
0 2272
1 2273
6 2274
0 2275
2 2276
0 2277
5 2278
5 2279
4 2280
0 2281
0 2282
0 2283
3 2284
0 2285
4 2286
0 2287
6 2288
0 2289
0 2290
5 2291
0 2292
0 2293
0 2294
3 2295
0 2296
3 2297
5 2298
5 2299
2 2300
0 2301
5 2302
5 2303
5 2304
5 2305
0 2306
5 2307
0 2308
2 2309
5 2310
0 2311
0 2312
6 2313
5 2314
0 2315
0 2316
3 2317
1 2318
5 2319
4 2320
0 2321
5 2322
0 2323
6 2324
6 2325
5 2326
0 2327
0 2328
0 2329
3 2330
5 2331
5 2332
5 2333
5 2334
0 2335
0 2336
1 2337
0 2338
5 2339
0 2340
2 2341
0 2342
0 2343
0 2344
0 2345
1 2346
0 2347
5 2348
0 2349
0 2350
0 2351
6 2352
0 2353
2 2354
5 2355
0 2356
0 2357
5 2358
8 2359
0 2360
7 2361
0 2362
0 2363
5 2364
5 2365
0 2366
0 2367
3 2368
0 2369
5 2370
5 2371
5 2372
5 2373
5 2374
0 2375
1 2376
5 2377
5 2378
5 2379
0 2380
7 2381
          10 2382
0 2383
0 2384
0 2385
5 2386
3 2387
0 2388
0 2389
5 2390
4 2391
5 2392
0 2393
5 2394
0 2395
5 2396
5 2397
0 2398
0 2399
0 2400
5 2401
5 2402
0 2403
0 2404
2 2405
3 2406
0 2407
1 2408
6 2409
5 2410
4 2411
0 2412
5 2413
5 2414
3 2415
5 2416
0 2417
0 2418
5 2419
1 2420
5 2421
0 2422
4 2423
5 2424
5 2425
5 2426
1 2427
5 2428
0 2429
0 2430
5 2431
0 2432
5 2433
0 2434
5 2435
5 2436
0 2437
5 2438
0 2439
0 2440
0 2441
0 2442
0 2443
6 2444
0 2445
1 2446
0 2447
5 2448
5 2449
5 2450
5 2451
0 2452
0 2453
3 2454
5 2455
1 2456
5 2457
1 2458
5 2459
7 2460
0 2461
0 2462
4 2463
0 2464
0 2465
5 2466
0 2467
0 2468
5 2469
5 2470
0 2471
0 2472
0 2473
2 2474
4 2475
5 2476
5 2477
0 2478
0 2479
0 2480
0 2481
0 2482
2 2483
8 2484
0 2485
2 2486
5 2487
5 2488
3 2489
1 2490
0 2491
0 2492
5 2493
5 2494
0 2495
5 2496
5 2497
0 2498
5 2499
5 2500
0 2501
1 2502
0 2503
0 2504
5 2505
0 2506
5 2507
0 2508
0 2509
0 2510
6 2511
7 2512
5 2513
5 2514
5 2515
5 2516
0 2517
0 2518
0 2519
0 2520
0 2521
0 2522
0 2523
0 2524
5 2525
5 2526
5 2527
5 2528
5 2529
0 2530
5 2531
4 2532
0 2533
2 2534
0 2535
0 2536
0 2537
0 2538
3 2539
5 2540
0 2541
2 2542
6 2543
9 2544
0 2545
5 2546
0 2547
5 2548
0 2549
0 2550
2 2551
5 2552
2 2553
5 2554
0 2555
0 2556
5 2557
0 2558
5 2559
0 2560
1 2561
0 2562
8 2563
0 2564
3 2565
5 2566
5 2567
0 2568
0 2569
0 2570
5 2571
5 2572
8 2573
0 2574
3 2575
5 2576
5 2577
0 2578
4 2579
5 2580
0 2581
0 2582
0 2583
0 2584
0 2585
0 2586
0 2587
6 2588
5 2589
3 2590
0 2591
0 2592
5 2593
5 2594
5 2595
1 2596
0 2597
0 2598
0 2599
0 2600
0 2601
1 2602
6 2603
0 2604
0 2605
4 2606
0 2607
0 2608
0 2609
4 2610
0 2611
0 2612
5 2613
0 2614
5 2615
1 2616
0 2617
0 2618
5 2619
5 2620
0 2621
4 2622
4 2623
0 2624
6 2625
0 2626
0 2627
0 2628
0 2629
5 2630
4 2631
1 2632
9 2633
0 2634
3 2635
0 2636
1 2637
5 2638
0 2639
0 2640
3 2641
0 2642
5 2643
9 2644
0 2645
0 2646
2 2647
3 2648
2 2649
5 2650
0 2651
0 2652
4 2653
5 2654
0 2655
1 2656
0 2657
4 2658
5 2659
1 2660
5 2661
0 2662
0 2663
0 2664
0 2665
5 2666
0 2667
0 2668
5 2669
0 2670
0 2671
2 2672
0 2673
8 2674
1 2675
0 2676
0 2677
5 2678
0 2679
0 2680
0 2681
5 2682
0 2683
1 2684
0 2685
5 2686
0 2687
2 2688
0 2689
0 2690
0 2691
3 2692
0 2693
0 2694
0 2695
0 2696
0 2697
0 2698
5 2699
0 2700
4 2701
0 2702
0 2703
0 2704
2 2705
0 2706
0 2707
0 2708
0 2709
0 2710
0 2711
0 2712
0 2713
0 2714
8 2715
0 2716
0 2717
0 2718
5 2719
0 2720
1 2721
0 2722
9 2723
5 2724
5 2725
0 2726
3 2727
0 2728
0 2729
5 2730
3 2731
0 2732
0 2733
2 2734
0 2735
5 2736
5 2737
2 2738
0 2739
0 2740
1 2741
0 2742
0 2743
9 2744
0 2745
8 2746
5 2747
0 2748
0 2749
0 2750
5 2751
0 2752
0 2753
0 2754
1 2755
5 2756
5 2757
0 2758
5 2759
5 2760
0 2761
0 2762
0 2763
5 2764
5 2765
5 2766
5 2767
0 2768
0 2769
0 2770
0 2771
5 2772
5 2773
4 2774
5 2775
5 2776
0 2777
0 2778
0 2779
2 2780
5 2781
5 2782
0 2783
0 2784
0 2785
5 2786
0 2787
0 2788
0 2789
4 2790
2 2791
0 2792
5 2793
5 2794
0 2795
5 2796
0 2797
5 2798
0 2799
0 2800
5 2801
1 2802
5 2803
0 2804
5 2805
5 2806
0 2807
0 2808
1 2809
5 2810
0 2811
0 2812
5 2813
5 2814
6 2815
5 2816
5 2817
0 2818
5 2819
5 2820
2 2821
5 2822
0 2823
5 2824
5 2825
5 2826
5 2827
1 2828
0 2829
5 2830
5 2831
0 2832
4 2833
6 2834
0 2835
5 2836
9 2837
6 2838
0 2839
7 2840
0 2841
0 2842
0 2843
0 2844
3 2845
5 2846
0 2847
0 2848
0 2849
0 2850
0 2851
0 2852
5 2853
0 2854
5 2855
0 2856
0 2857
0 2858
0 2859
5 2860
0 2861
0 2862
1 2863
0 2864
0 2865
0 2866
1 2867
0 2868
0 2869
5 2870
0 2871
0 2872
2 2873
5 2874
0 2875
5 2876
0 2877
0 2878
5 2879
4 2880
0 2881
5 2882
0 2883
3 2884
0 2885
5 2886
5 2887
0 2888
6 2889
0 2890
0 2891
0 2892
0 2893
0 2894
1 2895
1 2896
3 2897
1 2898
5 2899
0 2900
3 2901
5 2902
5 2903
5 2904
0 2905
5 2906
0 2907
5 2908
5 2909
0 2910
5 2911
0 2912
0 2913
5 2914
0 2915
0 2916
0 2917
0 2918
3 2919
0 2920
0 2921
0 2922
0 2923
0 2924
2 2925
5 2926
5 2927
0 2928
0 2929
0 2930
5 2931
0 2932
5 2933
8 2934
5 2935
0 2936
0 2937
0 2938
0 2939
3 2940
0 2941
5 2942
5 2943
0 2944
0 2945
0 2946
0 2947
5 2948
0 2949
5 2950
6 2951
4 2952
0 2953
0 2954
0 2955
5 2956
5 2957
0 2958
0 2959
0 2960
0 2961
0 2962
5 2963
4 2964
2 2965
0 2966
0 2967
5 2968
0 2969
5 2970
0 2971
          10 2972
0 2973
0 2974
5 2975
0 2976
0 2977
6 2978
0 2979
1 2980
4 2981
5 2982
0 2983
0 2984
1 2985
5 2986
4 2987
1 2988
0 2989
6 2990
0 2991
0 2992
0 2993
0 2994
5 2995
5 2996
1 2997
2 2998
5 2999
0 3000
0 3001
5 3002
5 3003
0 3004
0 3005
2 3006
0 3007
0 3008
0 3009
0 3010
0 3011
5 3012
0 3013
0 3014
0 3015
0 3016
5 3017
5 3018
0 3019
0 3020
4 3021
0 3022
0 3023
4 3024
5 3025
5 3026
2 3027
0 3028
5 3029
4 3030
0 3031
0 3032
0 3033
0 3034
0 3035
0 3036
0 3037
0 3038
5 3039
0 3040
9 3041
3 3042
0 3043
6 3044
0 3045
0 3046
5 3047
0 3048
2 3049
4 3050
0 3051
5 3052
5 3053
5 3054
5 3055
3 3056
0 3057
0 3058
2 3059
0 3060
0 3061
0 3062
5 3063
5 3064
0 3065
5 3066
0 3067
0 3068
6 3069
2 3070
1 3071
0 3072
0 3073
9 3074
0 3075
2 3076
0 3077
0 3078
0 3079
0 3080
0 3081
0 3082
0 3083
2 3084
0 3085
0 3086
0 3087
0 3088
8 3089
0 3090
1 3091
0 3092
0 3093
5 3094
0 3095
0 3096
0 3097
0 3098
6 3099
0 3100
0 3101
0 3102
0 3103
0 3104
0 3105
0 3106
0 3107
1 3108
0 3109
0 3110
0 3111
0 3112
0 3113
6 3114
0 3115
0 3116
3 3117
0 3118
0 3119
2 3120
0 3121
5 3122
0 3123
0 3124
0 3125
5 3126
0 3127
0 3128
0 3129
0 3130
6 3131
2 3132
1 3133
2 3134
0 3135
0 3136
0 3137
6 3138
0 3139
0 3140
5 3141
0 3142
0 3143
0 3144
0 3145
1 3146
0 3147
0 3148
3 3149
1 3150
0 3151
0 3152
0 3153
0 3154
0 3155
0 3156
0 3157
5 3158
0 3159
0 3160
0 3161
0 3162
0 3163
0 3164
0 3165
0 3166
0 3167
0 3168
0 3169
0 3170
0 3171
0 3172
3 3173
0 3174
0 3175
0 3176
0 3177
0 3178
0 3179
0 3180
0 3181
5 3182
1 3183
0 3184
0 3185
3 3186
0 3187
0 3188
4 3189
0 3190
0 3191
0 3192
5 3193
0 3194
0 3195
1 3196
0 3197
0 3198
0 3199
0 3200
8 3201
0 3202
0 3203
0 3204
0 3205
4 3206
3 3207
0 3208
0 3209
0 3210
0 3211
2 3212
0 3213
0 3214
4 3215
5 3216
0 3217
1 3218
0 3219
0 3220
5 3221
5 3222
0 3223
0 3224
0 3225
0 3226
0 3227
5 3228
0 3229
0 3230
0 3231
0 3232
0 3233
0 3234
0 3235
0 3236
0 3237
1 3238
1 3239
0 3240
7 3241
0 3242
0 3243
0 3244
0 3245
1 3246
5 3247
0 3248
5 3249
1 3250
0 3251
0 3252
5 3253
0 3254
0 3255
0 3256
0 3257
5 3258
0 3259
5 3260
0 3261
4 3262
0 3263
0 3264
0 3265
4 3266
0 3267
0 3268
0 3269
1 3270
4 3271
1 3272
0 3273
0 3274
0 3275
0 3276
0 3277
4 3278
0 3279
0 3280
6 3281
0 3282
0 3283
0 3284
0 3285
0 3286
0 3287
0 3288
0 3289
0 3290
1 3291
2 3292
0 3293
0 3294
1 3295
0 3296
0 3297
0 3298
0 3299
0 3300
5 3301
0 3302
0 3303
4 3304
4 3305
0 3306
0 3307
0 3308
0 3309
6 3310
0 3311
0 3312
0 3313
0 3314
1 3315
5 3316
0 3317
0 3318
0 3319
0 3320
0 3321
3 3322
0 3323
0 3324
          10 3325
0 3326
0 3327
0 3328
0 3329
0 3330
0 3331
7 3332
0 3333
0 3334
0 3335
0 3336
0 3337
0 3338
0 3339
1 3340
5 3341
0 3342
0 3343
0 3344
0 3345
2 3346
0 3347
0 3348
0 3349
0 3350
1 3351
1 3352
0 3353
0 3354
1 3355
0 3356
0 3357
          10 3358
5 3359
0 3360
1 3361
0 3362
0 3363
0 3364
0 3365
1 3366
0 3367
5 3368
1 3369
0 3370
0 3371
0 3372
0 3373
0 3374
0 3375
0 3376
0 3377
0 3378
0 3379
0 3380
0 3381
5 3382
0 3383
2 3384
6 3385
6 3386
5 3387
0 3388
0 3389
7 3390
0 3391
0 3392
0 3393
0 3394
1 3395
0 3396
0 3397
0 3398
6 3399
1 3400
0 3401
4 3402
0 3403
0 3404
0 3405
0 3406
0 3407
0 3408
0 3409
4 3410
0 3411
3 3412
0 3413
1 3414
7 3415
0 3416
2 3417
2 3418
0 3419
0 3420
0 3421
0 3422
0 3423
0 3424
9 3425
0 3426
0 3427
0 3428
0 3429
0 3430
1 3431
0 3432
0 3433
0 3434
0 3435
0 3436
0 3437
0 3438
0 3439
0 3440
6 3441
1 3442
0 3443
0 3444
0 3445
3 3446
2 3447
0 3448
          10 3449
2 3450
0 3451
0 3452
0 3453
0 3454
0 3455
0 3456
0 3457
0 3458
0 3459
0 3460
0 3461
0 3462
0 3463
3 3464
0 3465
0 3466
0 3467
0 3468
0 3469
0 3470
2 3471
0 3472
0 3473
0 3474
0 3475
0 3476
0 3477
0 3478
2 3479
4 3480
0 3481
0 3482
0 3483
0 3484
0 3485
0 3486
0 3487
0 3488
0 3489
0 3490
0 3491
0 3492
0 3493
0 3494
0 3495
0 3496
0 3497
0 3498
0 3499
0 3500
0 3501
0 3502
0 3503
0 3504
0 3505
0 3506
0 3507
0 3508
0 3509
0 3510
0 3511
0 3512
0 3513
0 3514
0 3515
0 3516
0 3517
0 3518
1 3519
0 3520
0 3521
0 3522
4 3523
0 3524
0 3525
0 3526
0 3527
0 3528
0 3529
0 3530
0 3531
0 3532
0 3533
0 3534
0 3535
0 3536
0 3537
0 3538
0 3539
0 3540
0 3541
0 3542
1 3543
0 3544
0 3545
0 3546
0 3547
0 3548
0 3549
0 3550
0 3551
3 3552
1 3553
0 3554
0 3555
0 3556
0 3557
0 3558
0 3559
5 3560
0 3561
0 3562
0 3563
0 3564
0 3565
0 3566
0 3567
0 3568
0 3569
0 3570
0 3571
0 3572
0 3573
0 3574
0 3575
0 3576
0 3577
0 3578
0 3579
0 3580
0 3581
5 3582
6 3583
0 3584
2 3585
3 3586
0 3587
0 3588
1 3589
6 3590
0 3591
0 3592
0 3593
0 3594
0 3595
0 3596
0 3597
0 3598
0 3599
0 3600
0 3601
5 3602
0 3603
0 3604
0 3605
0 3606
0 3607
0 3608
0 3609
0 3610
0 3611
0 3612
3 3613
0 3614
6 3615
0 3616
0 3617
0 3618
0 3619
1 3620
0 3621
0 3622
0 3623
0 3624
0 3625
5 3626
1 3627
0 3628
0 3629
0 3630
0 3631
0 3632
0 3633
0 3634
0 3635
1 3636
0 3637
2 3638
0 3639
1 3640
0 3641
0 3642
0 3643
0 3644
3 3645
0 3646
0 3647
0 3648
0 3649
0 3650
0 3651
0 3652
0 3653
0 3654
0 3655
0 3656
0 3657
1 3658
4 3659
0 3660
3 3661
0 3662
0 3663
0 3664
0 3665
0 3666
0 3667
0 3668
0 3669
0 3670
0 3671
0 3672
0 3673
3 3674
0 3675
0 3676
5 3677
0 3678
4 3679
0 3680
0 3681
3 3682
0 3683
0 3684
0 3685
0 3686
0 3687
0 3688
0 3689
0 3690
0 3691
0 3692
0 3693
3 3694
0 3695
0 3696
0 3697
0 3698
4 3699
0 3700
2 3701
0 3702
0 3703
0 3704
4 3705
0 3706
0 3707
0 3708
0 3709
0 3710
0 3711
0 3712
0 3713
0 3714
0 3715
0 3716
0 3717
0 3718
0 3719
0 3720
5 3721
1 3722
0 3723
0 3724
0 3725
0 3726
0 3727
0 3728
0 3729
6 3730
0 3731
3 3732
0 3733
0 3734
9 3735
4 3736
0 3737
0 3738
8 3739
0 3740
1 3741
1 3742
3 3743
0 3744
0 3745
0 3746
2 3747
1 3748
0 3749
0 3750
0 3751
0 3752
0 3753
0 3754
2 3755
0 3756
0 3757
0 3758
2 3759
0 3760
0 3761
0 3762
0 3763
6 3764
0 3765
0 3766
0 3767
1 3768
0 3769
0 3770
0 3771
0 3772
3 3773
0 3774
0 3775
0 3776
0 3777
7 3778
1 3779
6 3780
0 3781
0 3782
1 3783
0 3784
0 3785
0 3786
0 3787
0 3788
1 3789
0 3790
0 3791
0 3792
0 3793
0 3794
0 3795
0 3796
0 3797
0 3798
0 3799
0 3800
0 3801
0 3802
0 3803
0 3804
0 3805
4 3806
0 3807
0 3808
0 3809
0 3810
0 3811
0 3812
0 3813
0 3814
0 3815
0 3816
0 3817
0 3818
0 3819
0 3820
0 3821
0 3822
0 3823
0 3824
0 3825
0 3826
0 3827
8 3828
0 3829
0 3830
0 3831
0 3832
0 3833
0 3834
0 3835
0 3836
0 3837
0 3838
0 3839
0 3840
0 3841
0 3842
0 3843
0 3844
0 3845
0 3846
0 3847
0 3848
0 3849
0 3850
0 3851
0 3852
2 3853
0 3854
0 3855
0 3856
0 3857
0 3858
0 3859
0 3860
0 3861
0 3862
0 3863
0 3864
0 3865
0 3866
3 3867
0 3868
7 3869
0 3870
4 3871
8 3872
0 3873
0 3874
0 3875
0 3876
0 3877
0 3878
0 3879
0 3880
0 3881
0 3882
0 3883
0 3884
6 3885
0 3886
0 3887
0 3888
0 3889
0 3890
2 3891
1 3892
0 3893
0 3894
2 3895
0 3896
0 3897
0 3898
0 3899
0 3900
1 3901
0 3902
0 3903
0 3904
0 3905
1 3906
0 3907
0 3908
0 3909
0 3910
0 3911
0 3912
0 3913
0 3914
1 3915
0 3916
0 3917
0 3918
0 3919
0 3920
0 3921
0 3922
0 3923
2 3924
0 3925
0 3926
0 3927
0 3928
0 3929
0 3930
0 3931
3 3932
0 3933
0 3934
0 3935
0 3936
0 3937
0 3938
0 3939
0 3940
0 3941
5 3942
1 3943
0 3944
0 3945
0 3946
0 3947
0 3948
0 3949
0 3950
1 3951
9 3952
1 3953
0 3954
0 3955
0 3956
0 3957
0 3958
1 3959
0 3960
0 3961
0 3962
0 3963
0 3964
3 3965
0 3966
2 3967
0 3968
0 3969
1 3970
0 3971
4 3972
0 3973
0 3974
0 3975
3 3976
0 3977
0 3978
0 3979
2 3980
0 3981
0 3982
0 3983
0 3984
0 3985
0 3986
0 3987
0 3988
0 3989
0 3990
5 3991
0 3992
3 3993
0 3994
0 3995
0 3996
0 3997
0 3998
0 3999
0 4000
0 4001
0 4002
0 4003
0 4004
0 4005
0 4006
0 4007
0 4008
0 4009
0 4010
4 4011
0 4012
0 4013
0 4014
0 4015
0 4016
0 4017
0 4018
4 4019
0 4020
0 4021
0 4022
0 4023
1 4024
0 4025
4 4026
0 4027
0 4028
0 4029
0 4030
2 4031
0 4032
0 4033
0 4034
0 4035
5 4036
0 4037
0 4038
0 4039
0 4040
0 4041
0 4042
0 4043
0 4044
0 4045
0 4046
0 4047
0 4048
3 4049
0 4050
6 4051
0 4052
0 4053
0 4054
1 4055
0 4056
0 4057
0 4058
3 4059
0 4060
0 4061
1 4062
0 4063
4 4064
0 4065
0 4066
3 4067
0 4068
0 4069
0 4070
0 4071
0 4072
0 4073
0 4074
0 4075
0 4076
0 4077
0 4078
0 4079
0 4080
5 4081
4 4082
0 4083
0 4084
0 4085
0 4086
0 4087
0 4088
0 4089
0 4090
0 4091
0 4092
1 4093
0 4094
0 4095
0 4096
0 4097
0 4098
2 4099
0 4100
5 4101
0 4102
0 4103
0 4104
0 4105
0 4106
5 4107
0 4108
0 4109
0 4110
          10 4111
0 4112
0 4113
0 4114
0 4115
0 4116
0 4117
0 4118
0 4119
9 4120
0 4121
0 4122
5 4123
0 4124
1 4125
0 4126
0 4127
0 4128
1 4129
0 4130
0 4131
0 4132
0 4133
0 4134
0 4135
0 4136
0 4137
          10 4138
          10 4139
0 4140
1 4141
0 4142
0 4143
0 4144
3 4145
1 4146
2 4147
0 4148
0 4149
1 4150
0 4151
0 4152
0 4153
0 4154
0 4155
0 4156
0 4157
8 4158
0 4159
0 4160
0 4161
0 4162
0 4163
0 4164
0 4165
0 4166
0 4167
1 4168
4 4169
0 4170
0 4171
0 4172
0 4173
0 4174
0 4175
4 4176
0 4177
0 4178
0 4179
0 4180
0 4181
0 4182
0 4183
0 4184
0 4185
0 4186
0 4187
2 4188
0 4189
0 4190
5 4191
0 4192
0 4193
0 4194
0 4195
0 4196
0 4197
0 4198
0 4199
0 4200
0 4201
0 4202
0 4203
0 4204
0 4205
0 4206
0 4207
0 4208
0 4209
0 4210
0 4211
0 4212
1 4213
0 4214
0 4215
0 4216
0 4217
0 4218
5 4219
0 4220
0 4221
0 4222
0 4223
0 4224
0 4225
1 4226
0 4227
0 4228
1 4229
0 4230
0 4231
0 4232
1 4233
0 4234
0 4235
0 4236
0 4237
0 4238
0 4239
0 4240
0 4241
0 4242
0 4243
0 4244
0 4245
4 4246
0 4247
0 4248
0 4249
0 4250
0 4251
0 4252
0 4253
0 4254
0 4255
0 4256
0 4257
0 4258
0 4259
0 4260
0 4261
0 4262
0 4263
0 4264
1 4265
0 4266
0 4267
0 4268
0 4269
0 4270
0 4271
0 4272
0 4273
0 4274
0 4275
0 4276
1 4277
0 4278
0 4279
0 4280
0 4281
0 4282
0 4283
0 4284
0 4285
5 4286
0 4287
0 4288
0 4289
2 4290
0 4291
0 4292
0 4293
0 4294
0 4295
0 4296
0 4297
0 4298
0 4299
0 4300
0 4301
0 4302
0 4303
0 4304
0 4305
0 4306
0 4307
0 4308
4 4309
0 4310
0 4311
0 4312
0 4313
0 4314
0 4315
0 4316
1 4317
0 4318
0 4319
0 4320
0 4321
0 4322
0 4323
0 4324
0 4325
0 4326
0 4327
0 4328
1 4329
0 4330
0 4331
0 4332
0 4333
0 4334
0 4335
0 4336
0 4337
0 4338
0 4339
0 4340
0 4341
0 4342
0 4343
0 4344
0 4345
0 4346
0 4347
0 4348
0 4349
0 4350
0 4351
0 4352
0 4353
0 4354
0 4355
0 4356
0 4357
0 4358
0 4359
0 4360
0 4361
0 4362
0 4363
0 4364
0 4365
0 4366
0 4367
0 4368
0 4369
0 4370
0 4371
0 4372
0 4373
0 4374
1 4375
0 4376
0 4377
0 4378
0 4379
0 4380
0 4381
0 4382
1 4383
4 4384
0 4385
0 4386
5 4387
1 4388
0 4389
5 4390
0 4391
3 4392
0 4393
1 4394
0 4395
0 4396
0 4397
2 4398
1 4399
0 4400
0 4401
0 4402
0 4403
0 4404
2 4405
0 4406
0 4407
0 4408
2 4409
0 4410
0 4411
0 4412
0 4413
0 4414
3 4415
0 4416
0 4417
0 4418
0 4419
0 4420
0 4421
0 4422
7 4423
0 4424
1 4425
0 4426
0 4427
0 4428
0 4429
0 4430
0 4431
0 4432
0 4433
0 4434
0 4435
0 4436
0 4437
0 4438
0 4439
0 4440
0 4441
0 4442
0 4443
5 4444
0 4445
0 4446
0 4447
0 4448
0 4449
0 4450
0 4451
0 4452
0 4453
1 4454
0 4455
0 4456
0 4457
0 4458
0 4459
0 4460
0 4461
1 4462
0 4463
0 4464
0 4465
0 4466
0 4467
0 4468
0 4469
0 4470
0 4471
0 4472
0 4473
0 4474
0 4475
0 4476
0 4477
5 4478
0 4479
0 4480
0 4481
0 4482
0 4483
0 4484
0 4485
1 4486
0 4487
5 4488
0 4489
0 4490
0 4491
0 4492
0 4493
0 4494
0 4495
0 4496
0 4497
0 4498
1 4499
0 4500
0 4501
0 4502
0 4503
0 4504
0 4505
0 4506
0 4507
1 4508
0 4509
0 4510
0 4511
0 4512
0 4513
0 4514
0 4515
0 4516
0 4517
0 4518
0 4519
0 4520
0 4521
0 4522
2 4523
0 4524
0 4525
0 4526
0 4527
0 4528
0 4529
0 4530
0 4531
0 4532
0 4533
0 4534
0 4535
0 4536
0 4537
0 4538
1 4539
0 4540
0 4541
0 4542
1 4543
0 4544
0 4545
0 4546
2 4547
0 4548
0 4549
0 4550
0 4551
0 4552
0 4553
0 4554
0 4555
0 4556
0 4557
0 4558
0 4559
0 4560
0 4561
0 4562
0 4563
0 4564
0 4565
0 4566
0 4567
0 4568
0 4569
0 4570
0 4571
0 4572
0 4573
0 4574
0 4575
0 4576
0 4577
0 4578
0 4579
0 4580
0 4581
0 4582
0 4583
0 4584
0 4585
0 4586
0 4587
0 4588
2 4589
0 4590
0 4591
0 4592
0 4593
0 4594
0 4595
0 4596
0 4597
0 4598
0 4599
0 4600
0 4601
0 4602
0 4603
1 4604
0 4605
0 4606
0 4607
0 4608
0 4609
0 4610
0 4611
0 4612
0 4613
0 4614
0 4615
0 4616
0 4617
5 4618
0 4619
0 4620
0 4621
0 4622
0 4623
0 4624
0 4625
0 4626
0 4627
0 4628
0 4629
0 4630
0 4631
0 4632
0 4633
1 4634
0 4635
0 4636
0 4637
0 4638
0 4639
0 4640
0 4641
0 4642
0 4643
0 4644
0 4645
0 4646
0 4647
0 4648
0 4649
0 4650
0 4651
0 4652
0 4653
0 4654
0 4655
0 4656
0 4657
0 4658
0 4659
0 4660
0 4661
0 4662
0 4663
4 4664
0 4665
0 4666
0 4667
0 4668
0 4669
0 4670
0 4671
0 4672
0 4673
0 4674
0 4675
0 4676
0 4677
0 4678
0 4679
0 4680
0 4681
0 4682
0 4683
0 4684
0 4685
0 4686
0 4687
0 4688
0 4689
0 4690
0 4691
0 4692
0 4693
0 4694
0 4695
0 4696
0 4697
0 4698
0 4699
0 4700
0 4701
1 4702
0 4703
0 4704
0 4705
0 4706
0 4707
0 4708
4 4709
0 4710
0 4711
0 4712
0 4713
0 4714
0 4715
0 4716
0 4717
0 4718
0 4719
0 4720
0 4721
0 4722
0 4723
0 4724
0 4725
0 4726
0 4727
0 4728
0 4729
0 4730
1 4731
0 4732
0 4733
0 4734
0 4735
0 4736
0 4737
0 4738
0 4739
0 4740
0 4741
0 4742
2 4743
0 4744
0 4745
5 4746
5 4747
0 4748
0 4749
0 4750
0 4751
0 4752
0 4753
0 4754
0 4755
0 4756
0 4757
0 4758
0 4759
0 4760
0 4761
0 4762
0 4763
0 4764
0 4765
0 4766
0 4767
0 4768
0 4769
0 4770
0 4771
0 4772
0 4773
0 4774
0 4775
0 4776
0 4777
0 4778
0 4779
0 4780
0 4781
0 4782
0 4783
0 4784
0 4785
0 4786
0 4787
0 4788
0 4789
0 4790
0 4791
0 4792
0 4793
0 4794
0 4795
0 4796
0 4797
0 4798
0 4799
0 4800
0 4801
0 4802
0 4803
0 4804
0 4805
0 4806
1 4807
0 4808
2 4809
5 4810
0 4811
0 4812
2 4813
0 4814
0 4815
0 4816
0 4817
0 4818
0 4819
0 4820
0 4821
0 4822
0 4823
0 4824
0 4825
0 4826
0 4827
0 4828
5 4829
0 4830
0 4831
0 4832
0 4833
0 4834
0 4835
0 4836
0 4837
0 4838
0 4839
0 4840
0 4841
5 4842
0 4843
0 4844
0 4845
0 4846
0 4847
0 4848
0 4849
0 4850
0 4851
0 4852
0 4853
0 4854
0 4855
3 4856
0 4857
0 4858
3 4859
0 4860
0 4861
0 4862
0 4863
0 4864
4 4865
0 4866
0 4867
0 4868
6 4869
4 4870
0 4871
0 4872
0 4873
0 4874
0 4875
0 4876
0 4877
4 4878
3 4879
0 4880
0 4881
0 4882
0 4883
0 4884
0 4885
0 4886
0 4887
0 4888
0 4889
0 4890
0 4891
0 4892
0 4893
0 4894
4 4895
0 4896
0 4897
0 4898
0 4899
0 4900
1 4901
0 4902
0 4903
0 4904
0 4905
0 4906
0 4907
1 4908
0 4909
0 4910
0 4911
0 4912
0 4913
1 4914
0 4915
0 4916
0 4917
0 4918
2 4919
0 4920
0 4921
0 4922
0 4923
0 4924
3 4925
0 4926
0 4927
0 4928
0 4929
1 4930
5 4931
0 4932
7 4933
0 4934
0 4935
0 4936
5 4937
2 4938
0 4939
0 4940
0 4941
0 4942
4 4943
0 4944
0 4945
0 4946
0 4947
0 4948
0 4949
0 4950
0 4951
5 4952
0 4953
0 4954
0 4955
0 4956
0 4957
0 4958
5 4959
1 4960
1 4961
0 4962
0 4963
0 4964
0 4965
0 4966
0 4967
0 4968
7 4969
1 4970
0 4971
0 4972
0 4973
0 4974
0 4975
0 4976
0 4977
0 4978
5 4979
0 4980
0 4981
0 4982
0 4983
1 4984
0 4985
0 4986
0 4987
0 4988
0 4989
5 4990
0 4991
0 4992
5 4993
0 4994
0 4995
0 4996
1 4997
4 4998
0 4999
3 5000
4 5001
5 5002
0 5003
0 5004
0 5005
0 5006
0 5007
0 5008
0 5009
0 5010
0 5011
0 5012
0 5013
1 5014
3 5015
0 5016
5 5017
1 5018
0 5019
0 5020
0 5021
4 5022
1 5023
0 5024
4 5025
0 5026
0 5027
0 5028
0 5029
0 5030
0 5031
7 5032
5 5033
0 5034
3 5035
0 5036
0 5037
1 5038
1 5039
2 5040
0 5041
0 5042
0 5043
0 5044
0 5045
0 5046
0 5047
0 5048
0 5049
0 5050
0 5051
0 5052
0 5053
1 5054
0 5055
1 5056
0 5057
0 5058
0 5059
0 5060
0 5061
0 5062
0 5063
0 5064
0 5065
0 5066
6 5067
0 5068
0 5069
0 5070
0 5071
0 5072
0 5073
0 5074
0 5075
0 5076
0 5077
0 5078
5 5079
3 5080
0 5081
0 5082
0 5083
0 5084
5 5085
0 5086
4 5087
4 5088
0 5089
0 5090
0 5091
0 5092
0 5093
2 5094
0 5095
0 5096
0 5097
0 5098
4 5099
0 5100
0 5101
2 5102
0 5103
0 5104
5 5105
8 5106
0 5107
2 5108
9 5109
0 5110
0 5111
0 5112
0 5113
0 5114
0 5115
0 5116
1 5117
0 5118
0 5119
5 5120
6 5121
5 5122
5 5123
5 5124
5 5125
          10 5126
5 5127
