SMOTE: Counter({0: 112, 1: 111}) ENN:Counter({1: 108, 0: 89})
SMOTE: Counter({0: 112, 1: 111}) ENN:Counter({1: 107, 0: 95})
SMOTE: Counter({0: 112, 1: 111}) ENN:Counter({1: 108, 0: 89})
SMOTE: Counter({0: 112, 1: 111}) ENN:Counter({1: 106, 0: 92})
SMOTE: Counter({0: 112, 1: 111}) ENN:Counter({1: 107, 0: 84})
SMOTE: Counter({0: 112, 1: 111}) ENN:Counter({1: 105, 0: 93})
SMOTE: Counter({0: 112, 1: 111}) ENN:Counter({1: 103, 0: 93})
SMOTE: Counter({0: 112, 1: 111}) ENN:Counter({1: 109, 0: 96})
SMOTE: Counter({0: 112, 1: 111}) ENN:Counter({1: 106, 0: 91})
SMOTE: Counter({0: 112, 1: 111}) ENN:Counter({1: 103, 0: 98})
