0.900000	0.750000	0.750000	0.937500	0.750000	0.687500	9	3	3	45
0.866667	0.666667	0.666667	0.916667	0.666667	0.583333	8	4	4	44
0.900000	0.800000	0.666667	0.958333	0.727273	0.666667	8	4	2	46
0.933333	1.000000	0.666667	1.000000	0.800000	0.761905	8	4	0	48
0.916667	1.000000	0.583333	1.000000	0.736842	0.691358	7	5	0	48
0.883333	0.727273	0.666667	0.937500	0.695652	0.623656	8	4	3	45
0.900000	0.875000	0.583333	0.979167	0.700000	0.642857	7	5	1	47
0.933333	0.900000	0.750000	0.979167	0.818182	0.777778	9	3	1	47
0.900000	0.800000	0.666667	0.958333	0.727273	0.666667	8	4	2	46
0.900000	0.800000	0.666667	0.958333	0.727273	0.666667	8	4	2	46
