0.883333	0.777778	0.583333	0.958333	0.666667	0.597701	7	5	2	46
0.983333	0.923077	1.000000	0.979167	0.960000	0.949495	12	0	1	47
0.916667	0.769231	0.833333	0.937500	0.800000	0.747475	10	2	3	45
0.933333	0.900000	0.750000	0.979167	0.818182	0.777778	9	3	1	47
0.883333	0.857143	0.500000	0.979167	0.631579	0.567901	6	6	1	47
0.916667	0.888889	0.666667	0.979167	0.761905	0.712644	8	4	1	47
0.900000	0.800000	0.666667	0.958333	0.727273	0.666667	8	4	2	46
0.950000	0.909091	0.833333	0.979167	0.869565	0.838710	10	2	1	47
0.900000	0.875000	0.583333	0.979167	0.700000	0.642857	7	5	1	47
0.866667	0.700000	0.583333	0.937500	0.636364	0.555556	7	5	3	45
