0.933333	0.900000	0.750000	0.979167	0.818182	0.777778	9	3	1	47
0.716667	0.400000	0.833333	0.687500	0.540541	0.370370	10	2	15	33
0.816667	0.533333	0.666667	0.854167	0.592593	0.476190	8	4	7	41
0.866667	0.600000	1.000000	0.833333	0.750000	0.666667	12	0	8	40
0.716667	0.413793	1.000000	0.645833	0.585366	0.421769	12	0	17	31
0.866667	0.625000	0.833333	0.875000	0.714286	0.629630	10	2	6	42
0.833333	0.550000	0.916667	0.812500	0.687500	0.583333	11	1	9	39
0.816667	0.529412	0.750000	0.833333	0.620690	0.504505	9	3	8	40
0.900000	0.666667	1.000000	0.875000	0.800000	0.736842	12	0	6	42
0.816667	0.523810	0.916667	0.791667	0.666667	0.552846	11	1	10	38
