SMOTE: Counter({0: 509, 1: 508}) ENN:Counter({1: 444, 0: 238})
SMOTE: Counter({0: 509, 1: 508}) ENN:Counter({1: 443, 0: 231})
SMOTE: Counter({0: 509, 1: 508}) ENN:Counter({1: 446, 0: 246})
SMOTE: Counter({0: 509, 1: 508}) ENN:Counter({1: 437, 0: 250})
SMOTE: Counter({0: 509, 1: 508}) ENN:Counter({1: 450, 0: 258})
SMOTE: Counter({0: 509, 1: 508}) ENN:Counter({1: 450, 0: 235})
SMOTE: Counter({0: 509, 1: 508}) ENN:Counter({1: 449, 0: 258})
SMOTE: Counter({0: 509, 1: 508}) ENN:Counter({1: 444, 0: 234})
SMOTE: Counter({0: 509, 1: 508}) ENN:Counter({1: 435, 0: 251})
SMOTE: Counter({0: 509, 1: 508}) ENN:Counter({1: 450, 0: 219})
SMOTE: Counter({0: 509, 1: 508}) ENN:Counter({1: 444, 0: 242})
SMOTE: Counter({0: 112, 1: 111}) ENN:Counter({1: 108, 0: 89})
SMOTE: Counter({0: 112, 1: 111}) ENN:Counter({1: 109, 0: 87})
SMOTE: Counter({0: 112, 1: 111}) ENN:Counter({1: 111, 0: 91})
SMOTE: Counter({0: 112, 1: 111}) ENN:Counter({1: 109, 0: 81})
SMOTE: Counter({0: 112, 1: 111}) ENN:Counter({1: 109, 0: 82})
SMOTE: Counter({0: 112, 1: 111}) ENN:Counter({1: 110, 0: 84})
SMOTE: Counter({0: 112, 1: 111}) ENN:Counter({1: 111, 0: 84})
SMOTE: Counter({0: 112, 1: 111}) ENN:Counter({1: 108, 0: 82})
SMOTE: Counter({0: 112, 1: 111}) ENN:Counter({1: 108, 0: 76})
SMOTE: Counter({0: 112, 1: 111}) ENN:Counter({1: 109, 0: 87})
SMOTE: Counter({0: 112, 1: 111}) ENN:Counter({1: 110, 0: 87})
SMOTE: Counter({0: 112, 1: 111}) ENN:Counter({1: 107, 0: 83})
SMOTE: Counter({0: 112, 1: 111}) ENN:Counter({1: 108, 0: 84})
SMOTE: Counter({0: 112, 1: 74}) ENN:Counter({1: 69, 0: 65})
SMOTE: Counter({0: 112, 1: 111}) ENN:Counter({1: 110, 0: 64})
SMOTE: Counter({0: 112, 1: 111}) ENN:Counter({1: 109, 0: 73})
SMOTE: Counter({0: 112, 1: 111}) ENN:Counter({1: 105, 0: 61})
SMOTE: Counter({0: 112, 1: 111}) ENN:Counter({1: 110, 0: 66})
SMOTE: Counter({0: 112, 1: 111}) ENN:Counter({1: 109, 0: 70})
SMOTE: Counter({0: 112, 1: 111}) ENN:Counter({1: 109, 0: 56})
SMOTE: Counter({0: 112, 1: 111}) ENN:Counter({1: 108, 0: 73})
SMOTE: Counter({0: 112, 1: 111}) ENN:Counter({1: 108, 0: 80})
SMOTE: Counter({0: 112, 1: 111}) ENN:Counter({1: 109, 0: 65})
SMOTE: Counter({0: 112, 1: 111}) ENN:Counter({1: 110, 0: 68})
SMOTE: Counter({0: 112, 1: 111}) ENN:Counter({1: 108, 0: 66})
SMOTE: Counter({0: 112, 1: 111}) ENN:Counter({1: 109, 0: 60})
SMOTE: Counter({0: 112, 1: 111}) ENN:Counter({1: 109, 0: 71})
